<?xml version="1.0" encoding="UTF-8" standalone="no"?>
<!-- Created with Inkscape (http://www.inkscape.org/) -->

<svg
   xmlns:dc="http://purl.org/dc/elements/1.1/"
   xmlns:cc="http://creativecommons.org/ns#"
   xmlns:rdf="http://www.w3.org/1999/02/22-rdf-syntax-ns#"
   xmlns:svg="http://www.w3.org/2000/svg"
   xmlns="http://www.w3.org/2000/svg"
   xmlns:xlink="http://www.w3.org/1999/xlink"
   xmlns:sodipodi="http://sodipodi.sourceforge.net/DTD/sodipodi-0.dtd"
   xmlns:inkscape="http://www.inkscape.org/namespaces/inkscape"
   width="1024"
   height="768"
   viewBox="0 0 270.93333 203.20001"
   version="1.1"
   id="svg8"
   inkscape:version="0.92.4 5da689c313, 2019-01-14"
   sodipodi:docname="lcars-kickers-log.svg"
   inkscape:export-filename="/home/themba/synced/lcars_kickers/app/assets/bg_log.png"
   inkscape:export-xdpi="96"
   inkscape:export-ydpi="96">
  <defs
     id="defs2" />
  <sodipodi:namedview
     id="base"
     pagecolor="#ffffff"
     bordercolor="#666666"
     borderopacity="1.0"
     inkscape:pageopacity="0.0"
     inkscape:pageshadow="2"
     inkscape:zoom="0.49499999"
     inkscape:cx="-29.225517"
     inkscape:cy="508.16998"
     inkscape:document-units="px"
     inkscape:current-layer="layer4"
     showgrid="true"
     units="px"
     inkscape:snap-bbox="true"
     inkscape:bbox-nodes="true"
     inkscape:snap-page="false"
     inkscape:window-width="1599"
     inkscape:window-height="868"
     inkscape:window-x="1920"
     inkscape:window-y="1097"
     inkscape:window-maximized="1"
     showguides="false"
     inkscape:guide-bbox="true"
     inkscape:snap-global="true"
     inkscape:snap-to-guides="true"
     inkscape:snap-others="false"
     inkscape:snap-smooth-nodes="true"
     inkscape:snap-text-baseline="true">
    <sodipodi:guide
       position="270.93333,0"
       orientation="1,0"
       id="guide6712"
       inkscape:locked="false" />
    <sodipodi:guide
       position="270.93333,203.20001"
       orientation="0,1"
       id="guide6714"
       inkscape:locked="false" />
    <sodipodi:guide
       position="270.93333,0"
       orientation="0,1"
       id="guide6716"
       inkscape:locked="false" />
    <sodipodi:guide
       position="-1.0658141e-14,203.2"
       orientation="1,0"
       id="guide887"
       inkscape:locked="false" />
    <sodipodi:guide
       position="270.93333,0"
       orientation="1,0"
       id="guide889"
       inkscape:locked="false" />
    <sodipodi:guide
       position="276.93057,203.20002"
       orientation="0,1"
       id="guide891"
       inkscape:locked="false" />
    <sodipodi:guide
       position="270.93333,0"
       orientation="0,1"
       id="guide893"
       inkscape:locked="false" />
    <inkscape:grid
       type="xygrid"
       id="grid928"
       spacingx="1.0583334"
       spacingy="1.0583334"
       empspacing="6" />
  </sodipodi:namedview>
  <metadata
     id="metadata5">
    <rdf:RDF>
      <cc:Work
         rdf:about="">
        <dc:format>image/svg+xml</dc:format>
        <dc:type
           rdf:resource="http://purl.org/dc/dcmitype/StillImage" />
        <dc:title />
      </cc:Work>
    </rdf:RDF>
  </metadata>
  <g
     inkscape:groupmode="layer"
     id="layer2"
     inkscape:label="black bg"
     style="display:inline"
     sodipodi:insensitive="true">
    <rect
       style="opacity:1;fill:#000000;fill-opacity:1;fill-rule:evenodd;stroke:none;stroke-width:1.18220115;stroke-linecap:round;stroke-linejoin:round;stroke-miterlimit:4;stroke-dasharray:none;stroke-opacity:1"
       id="rect4519"
       width="270.93335"
       height="203.2"
       x="-1.0658141e-14"
       y="1.8531722e-14" />
  </g>
  <g
     inkscape:groupmode="layer"
     id="layer3"
     inkscape:label="template"
     style="display:inline;opacity:1"
     sodipodi:insensitive="true">
    <image
       y="146.05"
       x="-288.57227"
       id="image6705"
       xlink:href="data:image/png;base64,iVBORw0KGgoAAAANSUhEUgAAAyAAAAHgCAYAAABdBwn1AAAABmJLR0QA/wD/AP+gvaeTAAAACXBI WXMAAAsTAAALEwEAmpwYAAAAB3RJTUUH3wwSDToBSioL8wAAIABJREFUeNrs3XmcJGdB//HP81RV d8997JU9w2aTzeYiJwkhQSTcVwQBOX7IqSLKT1FO/YkiKCgoh6IioggoKrfcoNzhSICEXCSbcze7 2Xt25+6j6nme3x/V3TOzO5Od3ZnZ6Z39vl+vSWZruqu7n3q66vnW8zxVBggcI2MMIQSuvuAq3vt/ 3wUhgDHI4vDBU0yKvP4f/oCv//h/VSAicpIzzUNKCLM7RJn6Exbq8Sf009ePsY3/T/e32Xymicc2 js+HLTcGEyA0lmPAMMNrG2Dq8pnK0EzTHmjFchaRxROrCEREpLUEjrW9eqwN3FZuEDfe23Tv8aHe 9+F/m/j3DMtDmPKXQGg+9MjXOfI9zfReFDZE5GisikBERERERE4U9YDIQ5qpu/+hhgEs9GsYDGHa kYP5EIFFKimMoX7WNsy5PODYziIebSiEzkiKiMiRx44FWnE48khoNFR/SZiv9kQ81xoWQv5jTugX RpX48MoQQpihUX78ZWyMxXuHtREh+Oa4YGMM3nustc0Gt7X2iAa5944QQvP5jUa69/4hK/Pk145s hJ/02tZanHNEUYz3vr7eSXu8RQppkz+HtbZZPtZGU96eD75ZhlN21MHj6mXtvauvJy+3/HNH+ccz jR17wLlsxtc+8veJ9Z7I72dju820A7PWYEz+OSfXC2NsvX6FZt1r1KtGXZu8vFFn8voVDqsXMwUx QxRFBO/xhz1+IUx8nsPr+8T7nlyHJz7n1Oc06s+xLocjv3szv8ZEGZ/I785CnOQ41teYPA9CZOm3 H06+hqssDXMKIAZDHMUzNjLkxDWA4yjGGjuP67QUiyUiG5O5lEql3PxbkhQpxAUy76jVyngPkY0n VwzqR3BcyENEodgBQK1awfvapHUVKBbbKJfHcC5rriB/7YjMZdRqlWYDKUmKlEox3jsqlfFJLxjo aO8icxnVavlEbwHaSu3096+iXB5jaHgA7z2RjYmTZMpO13uXb6dJ3xeDwfkMV3NYa+np7qezs4eD h/YxNjZMFMXEcTLl8Y0AAoaenn56uvo5NHSA0dGh5uNKpQ56e5ZTrZUZGTlEreZOaKnM5lhjjCWK IryfaDgbkxdPFEWEEEhTN6WxGMcxIUCaVqc0uOMoqv87ndXr568R48jA+QX8fjau02HrJ23cNIHb YIwDzJSwlYf97Mg9r7HTLAdrLO6w9U+cBJi+13DyazTKMw8mAefmt7fzyHI58thx+OtN9Cwef6Nn puNTY72TXzMQ8hDCwn32493PTwTuqWXS/LfJ3/mU8sM09zeNQHn4RPKj/26nPfmYP6Z+FsXU902H LZ/r9hORJdp25XiuglVvAG1c/TB+6dHPAF/fWak8F2cDhkAUR3zx+19m6467VCgiIsfZuF+s158c mGazfKbersMfP9M6Dn/O9D3Rk08MmBkD3mxeR0RkzgFERERERETkeMx5ErqGXrWQSddzFxERERFp ReoBERERERGRE2ZOPSAd3X2cd9ljsFGEZpotboS0NmLvznu59/afqkxERETk2JoTuiSvzGZzLu5l ePNW74rV63nJa99JUmpXZVrUyuApJEW+/YV/UwARERGR42hLnHyN2FM1KOaXbzdHXHY+v4S9mfZy 9JOD3+SLR1hjCYTDLtNu6pfJb1zafv6315zngHjvCN4tYHSW2QQQ592CX7NfRERERBY3KM7U3gvB 49zsg1+o3y5hmkfW7021cOZhErptJjFZtDyMtZG2gYiIiIi0vPhUL4CQR8kjm/SNuxY3uqQmdXlN TojBT/9cqN91eOJOV1Pv4Own3cH58Ds7h3oXW/0u2o27QTcGUVpr1eMkIsdNY72lZY6/IqIAcmoe iM2MR2NjDCaKHurZGDvzwbUROI5cr8VEMyw3M7wPE6m2isg8NfzUyBQREQUQERERkUXVuPv7iXid yQH98J7Co93hfqb1PNTjZ3qNY12+UGVxLJ/xeNY13badbbkv5Oef7ec51m18tOXT9U6fyG2vACIi IiIKAiewkTndZODZPvZof5vp8fO1fKHLYi7vY77KajFDx1xCRuN7cyzh41jKbD6/lwogIiIi0lJa pfErqoOt9voPtXy2Iet4g9d8lolVFRMRERERkRNFAURERERERE4YDcESETmF6ZK80go0FEpEAURE RE6Zhp8amSdLUGzci8r7MOVOyMZYrD1y+eHBb/IEVGssgZDfr2rikVhrMIb6uia2l7XTv7atv6cQ An7y8vrjg5+6XEREAUREROQkCYphhoZ8CB7nZh/8Qgi4MN0TAt5PHxKnBpVJyyfdJHc2jxcRAc0B ERERERGRE0g9ICIiIiKnOM0Hk1ltTt0HRFpzBzb9HUuPtvzwv832JjnH+/i5fLbpvoyNGwDB1KEH My0/lh3w5HHbs1nX4eO2G8tO1Pj7+bpR0bHc/fZoj5/pPZ2om52JiLR+w/Lka8TKyUsBRBZspzK5 cTfT3TTn42Y3J6oROdNrNF5/uvdxvHe3faigM93Y6qOV44m6o/B023S6oNX4LA/1OSYHr9kE2pnq 3mzKZ7Huunx4Gcw2hE/3+WcT5mfz2g/1nhYy0M/2pMWxruuh6s+xlNdinMg5nm18LHdAPpZtfyx3 Xz7ad1tERAFEFuUMx3wejFrlbqUzTbqcz/d3rBM7T2TZHM9dW493vcd7F9fFLqf5CqjHUiYLtV0W +nt7LO9jvsqqFfYpxxMypgv/Rwsfx1Jmh7/GsYQ0BQ8RUQARERE5CU5oHMvy2Yas4w1eh79GKwc4 EVEAEREREZGTgCahy6w2pyahi4iIiMj8NCxPvkasnLx0HxAREREREVEAERERERERBRAREREREWlx BoiMoRVn3GgOiIiIiKixZkw+W1rzo0/qORoGo204aTu6Ft2WCiAiIqd0o2uhjny68o2cXA3e5nvQ /OiTuy5Nt/MRBRAREWmlht+p1cgUEZHFpzkgSyv2i4iIiIgs5QCi7vTWCR+BKFaHloiIiIgsxQBS zx2d3X0Uim0qxRbgg6e9qwcbRRpnLSIiIiIt67hOmRvqF4qIIoy1aFjv4jImH1vd3tlDsdRBpTyK NoqIzHb/sSA0CV2OpbromCWiADL7IKKDSYs0IfDO0bv8NDq6e6lWxjQdRERm2fBTI1NERE6s4xqC 1TiGjI0cIq1W0OznVmhEeHqXraKzu0+9HyIiIiKytAJIg8tSvHcqxRaRFIqsXHcG3nuM1QXORERE RGTJBJD8DHutWsG5DPWAtMCGtJY4KXDOxVcTRbEGx4mIiIjIUgogYIylMj5GrVrWkJ+WYPAu44LL H0uUFPDeq0hEREREpOUc9yR0ay21yjiVsVG6+1bqjHsLcM5x2umbuPDKx/Pjb30eYywhKIiIyMx0 FSxpBbpAgcipJQLecnwHLYP3ns0XPpJ1Z2zJ5x3o4LLoO3BrLas3nMU3P/dhtDlEREREpNUc9xCs QCCtVdi7837iOCFoyM+iM8ZQLY+z8ZyLuOZZLyOEoFAoIiIiIkskgNQDx54dd2OMIWgiemuEEGsZ Gxnil1/+RtY8bLO6tUVERERkaQSQhu1338bI4CGiKFZptkoIMVDq7OIFv/1W2ju7sVGExmOJiIiI yJIIIDvv/TmDh/bmAURn21slguCd5+Krn8KLXvMXlNo6QMOxRERERKQFzEu3xU+//UWe+8o3Mzx4 AKtGbmtEEGMYHxvm6qe9gO7+FXzsPW9k74776n/T1bFEZPL+YoFWrCthyQI6fIix6pYsuTrdqu9z HtZx3FfBmnzUGhzYyzXPfCk+yzTUp8VCSFarsXL1Bh75hOcwMjjAA/fcBuS9ITaK8uqtTSYiIiIi J6qNOtcgY4whhMDr3v1JLrzyCZTHRnQWovUiNVhLe2c3W2/6AV/8t/dy9603UBkfw2U13bRQ5BQW Wegq2QVZdwBGKx5X38UkcUKp2EYg6LzHqXgoYr7Od+UXvhkbH2v25ltj6WrvxGsouJy0DXJDLatR qVWay9rimCSKWu69VrOMqnOLHECsJXjP5Y97Fr/91n+mVhlDp9RbdOfvPcX2TuI4Ydf2u3jg7lvZ tvVmDuzeQZpWVUAiS7z1FxcK7Nt5P/fdcSPWGHwInLM65suvWUkw4MM87b0NeA8jaeCl/3iAW3Zm QOCxVzyB17z0TdTSKpGNtE1atiFEvSEfMMZCCM0rXZp6r3nwYcYrYBpM/W/1RkbIH2WtxXuHMbb+ GrM7+WWMPSw0R6RZjVf+yUsYOLQfgJV9K/j82z/DwPDAlLoVCPWQYrDG1k+45RXdmih/D/V7aPmQ jxk0ZoYbI+Z/AJOvK4QwMZzZGAxm+uHNjedNYq1VW0mmKBWKfP77X+J9n3o/AM473njlo3jmlnMY S2tEk0/u138NR+yzJ8V88xBnAo5TFgIdccw/3nQjH7n55jmFiDnPAQneY6zl9h9/mwfuvoU1D9uM dzqj3pIHFWuplseoAf0r17Bs1TouvvopKhiRUyF/BE9XTz//++kP8cE/uxETRZBlFGLDuv64GRrm 7/VguOZJoomjYKnYxqr+06hkFWIFEJl1XQp5495MCiBpbUrQsMZy2rJVxFGkcCsnaQAp0dPeXR8Z n1f27lKRNZ2djNSq+Rzrepi11mLrgcAag50UBHx92eR7wTVHJoWAb55g4JgvHuVCoCNJ6CwU5vx5 43naOzA2PMj3v/oJfuVVf0wITsOwWjWE1LeLdw7IdOEykVMogGRpDZdlRwQF5wKRmd8LGfqQ/ycc 9h6cz/DO4bTvkeOtW87hnOPwc6/OOZx3KiA5KTnv6j1yNHsvfAhkwePqvYhZ4yzRAgydj2fRbnch 4EKYl6GO8xJAGinrR//7aX7x2hezbOU65nO0pyxYHNE1A0ROqe+7PWI4i8gSqd4iS95SOm8zr0ei wQN7+dw/v5O2rm5NbBYR0SFMRERk4QJIsxfkG5/hO1/4GD19K/HqChURERERkYUIIJNDyIf+/NXc 8/MfUyy1obNtIiIiIiKyIAGESXHjn//8dzh0YG/9rtsKISIiIiIisgABpHEZlfu3/oyPvfsN+bWx jZ3+2tgiIiIiIqIAMvcMkg/FuvF7X+F9b/pVSm3tRDZRT4iIiIiIiALIwgghYKzl1uu/wVt+/Qkc GthNnCQqcRERERERBZAFCiH1u6Tfe/tP+Kvffy63Xv8tCqV2ojjRZXpFRERERBRAFiaEAOzZcS9/ 9+aX86G3v5qxkUG6evrw3teHZWloloiIiBxdZCMVgogCyOyltSrf+9LHedMLLufrn/wgSaFYH5Zl 1CMiIiIiIqIAMr9C8BhjGBsZ4l/f9Vr+8Fev4n8//SH279qOsZakUCJOChhj648PzR80gV1EZA47 YBWBiIi0hviEHwPrV8gC2PPAPXz8b/6I/pVrWL/pfM677NGccd4jOP2sC2jv7G6GD+8d3mV45/O7 qyuMiIgc684XZrgcujlhb8Kc0FeTpcsYBWw5Req6Asj8hpDJBg/s4dD+3dx6wzeI4wKdPf2sP+t8 zr3kak7ffCE9/Sto6+imUCpRauskimLVSBGRY9rveoptHcRJ8Yi/uZC331yYv4Od9+CPmOKXn1By wWGCgogcb+UC590RrTQfPM675klOkZOqWgeHP+wkkQ8BV/9Z+Nc/+ms038s8vJ+WaMl77zH1w15a q3Bw34Mc3PcgN3//a83HdHT30d7ZTWdPP0mhqJoqInJsCQQbJwwe2JP/07lmUCinHm/MvHYumwBD WZhywsl7Ry1LSWspwWreX0szzczY/HdjU5rD/9Z4/DT1J5CHhTiKscaQOQcGLGbqc8zs1gdgI0ua plPqVvBQq1VJsxQ/KfmGevgGgzUGH/L2hjGm3uDKH2eNbf7bGgsYQvAEAgaLMSYflUGjvRII9edN vAYYbP1vof46tvm8KZ/BWNUxOaJOuPp+OdTrpfOBmnPUnMMas6DhOptlAEmsndVjZ7OLacmOy2Yh G9O8kpaIiMyvQmzY0B9jmoe8+Wm7+nrrb+chRzXL19zR1kFfz/LmfEBp6cQ6yybDNEnlqOszM7yG meFx0+XpwJ4Du5oNtsjGrF+5tt4zYg5rTzQz+LS/T/e3KUFrmsdPXn74YwkTb+FozxOZCCCGkfIo B4cPNpcta2ujq1jEh9ASQ7FC/X0eKlcYqlaWZgB5iGSiWioicrw7fLV8RESkFY5HJ8ObVPAQOUmE qWfS8zPdJ9+5jqW8yz88hNgF3L36wza7tUZVYQlWq/yiMZO/90tv8uzhddkYoz3bcR8mwjRlOZ/9 sCdrwTClDFqxjjXez1xPZrXkbO7Gh2t+yHqjphhFFOKYtliT0EVa87trGM9SRqrV5vc3SYp0dvbh vdN5hOPLc80G3VyfY4ylWh1nbGy4uSyJDCu77YK99/0jntTlb6hUTFje25lfDVFXw1o633tjGBod Z3hsYkjGsg5LW2JoyQHUM40WCzzkCLJ9k+oyQH93P7GNTt0mc/1k0xEniWdaXl/mvOfA0IEpy7s7 uikVSs35OksgRTQKYIa/mWnbvuVqmeHxkeayrkKB9iSZ1QTxE3mcH01rjNVqSyOA2OaEsHzbFKKI DT09bOztZUNPD2f09dNXKtKeFOguFuvbT2fSRFppp1uMY75411Y+8JOfYK3Fec+WLVfwspf9KYcO 7SGKYo19Pqbju8fW7/rsva8fs8w0Zw9pTpKlPsE2NCfYmvq6Ah0d3Vx//Zf59KffRxRFOOc4Y0XE J161YmrDbO5HKIKH4czzqg8f5PZdKdYYrrzgDN75Ry+mUK1hIk3CXRrfemhrK/Kej3yVf/jEt4nq 3/t3PLuPR20pklZCy5x4CNOEjMavvjFXo94+tHZqUKn5wAv/4QB378uaz33bK/6ENctWk7nsFEuc edmUCm3EkaWWptSyWnN5MSmSxDFZllFJq1M6wOMoZmD4IL/+rldNuQH1b1776zzmwqsZq5RP6hNV IQTiKCaOYpzPyDI3pb7FUYI1UMvSI55bTIp89fqv84HP/xOQX7zhxRdeyNPO2sxYrYa1tll/7TT9 IgaDr/dwN3pOptt0HprHimPd7s572uOEj95yM/91+21z6p2JW6Eem0nh4/yVK3jG5rN5+MrTOHv5 MopRROb9vHT3iMjCKsUxy9rbpxza29o6WLNmE4VCiShKVEizbyrR3t5FmuZnmeI4oVodJ4oSkqQw pZfDOUelMlYv4wjnMqyNCCFQq5UBSwierq4+enqWT9k+pdhw9mkxliOHmMyFDzCSBkqJab5cZ1uR LRtPo1CuEieRzh8tiZAMcWeJ5b1dU1r06/sizl2dUC77BR3idyysgaRk8+tNWwMuUEkDFii0T1ru A+VKaL5vYww1N1GXTf2KYOtWrOX0VRtIs1Q9erNtdEYx7aX2I5av7F3JxtUbGSuPnTQXqJiP4WKN ehMItBXaWN6zjPwCcfny5W1tbOztZbRWIzKG44gN8yoLgY4kobdUmntdWMzg0dBTKnLVug285KKL OH/lSmJrqWUZY1lGluZnzqzGboicHM3mMNO3PaAuy2MzPqkrPk2recPeV5u/TyllY0jTKmk6XfmH h9xmJizMNDsTpjlEh4n/a6++dL74094XsMVOGvoA1bKfUhEb347q+NTlU0LTDPc9yBcHzVuYt0b7 qVeWkz9v8/fJKaMeOqZrOz/kcfhkCKOLFT4CsKqzkydt2sSzzzmXc5cvp+Yc5TTFhfyMRJyPK9A3 VkRkLge5EB7y0KTmkyzoWQkdxkV7HJXaYgaQiRv5wC+dfTa/fullnN7djQeG65NZDBApdIiIqBUo IiJL0gkLIJOvP/8Xj3s8v7RlC+O1GjXvMTo0ioiIiIgogMynAGxetoy/fuKTOHf5Cg5VyprXISJy ygm6DfSS2pwTV68UEWmZABIZgwuBJ595Jn949aPpa2tT+BAROaFaY39rDGAttv6jZutSyB8GrD1p rlwkIqdAALH18PH0zZt522OvgRCoOafwISJyQhv+piUuYx4CRM6TOY+xTvFjSQQQSJyr30BORGSR A4gBfAg85cwzefeTnsxotappkCIii9JIbIHw4QP/c8MdbHny6/EBgg4GS0ZkDIMj4wB4pyAiIosY QAJw5br1vO2x1zBaq+FDUM+HiMjiNP9phdM/lWrKA3sPaXMs8ZomIrJoAWRtdzd/8pjHENeHYSl8 iIiIDgVLNHgoeYjIYgYQay2EwFse8xg2dHdTcU7DrkRERA1VERHJ88J8rswA3ntectFFPPGMMxnP MpWwiIiILFrgTSIzp+eLSIsHkABcuGoVv/fIKxkoj2vYlYhIS9C+WE7dqu+8UoRIq5m3IVjGGEpR xBuuuorgva54dZLR7llUj07dIDLf54qMco80tr9Z/LeQebDH+T5M/TNMe5+TmZbLse+HjHYY5hiX K4A0Gh4hcM3GjZy3YiU174n0pWz9xmII+BCIrCUyRjtSmfsOxVjsYUf6EDzOZTjnMMaqkBaJ9/l2 OOJ+DQEyB8YEnJ+fo10+HDdfr1LpKVrfAngXyFxgsb/2Bo57REZW7z1J3ZHDsbxzZM1929I4fkY2 WrB1N8rJeTft/ilzGc63VlkuaHlMLocAmc/w3h/2PQpkIZB5TyGKZrnehbsUdhYCznv8POzY5yWA GGPoSBJecP7DMcYofLRq4Gh8oYwhsZbMeyrOsXNwkL1j41RdqkKSOSlEMVsPHDisxuUHlxD8ETtX OdpJAk+SlLDWUqtVCCFgDM1ytIcdHEPwRFFCHBdwrkaWpc3QF4Kv/4Qp2ycYqPlA1dQXhfnb4Ywo fJzCgRcOBcgC0Apfex8ggC0YooIhOMgqvv7dgCg2RCVD8JCV/ZQrVzd6UY5cZb5P8yFglshkkdnu o0OAgK/vkwzG2Hpx5Sc2QwhgDNYYzKSzGt5PfxwIwTfLs5UCyLEdswLOhyN6lA22uczVP990gdj7 gK+fIAqN/XMI9eVh1sHC5RuHQGiWZajX57mUbOP+fq6xfefhxMCc1mKNwYfAkzadyXue9GQqmRqx LblTCYFiFFFMEg6MjfGd7du54cEHuWtggAPlcYYqFVLv514h5JTW2EH5STunjo4eVq3aUG8M6+TE 7MNHPvxjYkdvjjiwNR4zdVmoL5/6+BAgiiJGRg5y4MCu5t3R2xPDltVJ/bWYtx6QEMAFuHtvynhN e5VTzVmrEnrbzLz1qs3n96pxkDOTh4iFiR6Ow3tsTMgz1J27U8rpRF0+c+0mCkmhJW70edIcI4wh zVLu2Xlvs5ENsG7FOno6u0/pk1TGGA6NDLJnYA/U9/1rurroa2url0srfJHy22rsGxtj//j44gaQ xgo+8sxncsXadYzVampktBjnPd3FIrtGR/i3W27lU3f8nLFaDec91tr8pKd2oDJvB/hwxE7V2kh1 7LgPSpMaTnN8Th46pp6BNAYia+b/zEP94OB80EmNU1BkJ82PaKUKYKa0pY6+fNLfnZtalxdyeM7S 3qnlw7E4rCybJ0FO4QDiD9s/23pvSat9heajFySe65sIwCWrT+MXNpzOQLmsK1+1UkOwXnlja/no Lbfw7h/9gHKaNSt1PhZTQ2Jk4QOJc7okd+tuH8icIoLML+dbLXksxGd02tAqywV1+IiCpWROAaRR JC+/6BIqWaYLnrRY+GiLY27bu4/3XP9Dfrhz55TQ6HU2WkREREROtgACsL67h4tXr84DiHo/WiYx l+KY7+/YwZu/9U32jI4SWUuod+MdbSsFpzMRIiIiIkudmcXVtRaiXTjnAPLIdevoK5UYTVNiBZBF F0KgGMfcNTDA677+NYZrtXyQd5LM+q6TmQKIiIiIyJIXxUePAlkrBZDGxJhLV68m9R5NxWqB8AHE 1jJYqfA7X/0KQ9VqPd4qGIqIiIhIa5jT7YH6Sm2ct2IF6RK6Cc/JzAClOOGPv/0tdg4Po1u+iYiI iMiSCCCNa/2v6Oigr61Nk89bRCGKuG7HA/xgxwP5/VlUJCIiIiKyFAJIw7L2NjqSRAGkBYT6XTI/ e+cd1DLN4RARERGRJRhA0KVcWyeAAIcqFe44cKB+MxttGxERERFpPbGKYGmEj8hatg0Osn9s7Mhb P4WAa0xIFxEREREBskVqHyqALJUkaS0PjgwzrKAhIiIiIi1MF0paKkLgwPi4ykFEREREFEBk4cMH wGClorIQEREREQUQOUEbU/diEREREREFEBEREREREQUQERERERFRABEREREREQUQERERERERBRAR EREREVEAERERERERUQAREREREREFEBERERERUQARERERERFRABEREREREQUQERERERERBRARERER EVEAERERERERBRAREREREREFEBERERERUQARERERERFRABEREREREQUQERERERFRABEREREREVEA ERERERERBRAREREREREFEBERERERUQAREREREREFEBEREREREQUQERERERFRABERERERETkO8Vye HAAfAiEEleQiCiHk20FFISIiIiJLOYAk1tJbKhECYFSYixlAilFEKY5VGCIiIiKydAPInrExPrd1 K4SgALKoAQSSyHLXgQMqDBERERFpaQY0ckdERERERE6MOfWAGMBazWNvFd57pUkRERERaWnqARER ERERkRPmuHpAGqllY18fzzz7bAJggrLMYmVIjyexEV+4aytbBwZUJCIiIiKytAJIwxl9ffz+I68k hIAxmoW+WFwItMUxdx0cUAARERERkaUbQKpZxt6x0fwiWAogixpASlFEJXMqDBERERFZugHEAJGx BAIogCyqyBhdCVlEREREWp4uYSUiIiIiIgogIiIiIiKiACIiIiIiIqIAIiIiIiIiCiAiIiIiIiIK ICIiIiIiogAiIiIiIiIKICIiIiIiIgogIiIiIiKiACIiIiIiIqIAIiIiIiIiCiAiIiIiIqIAIiIi IiIiogAiIiIiIiIKICIiIiIiIgogIiIiIiKZlzQzAAAgAElEQVSiACIiIiIiIgogIiIiIiIiCiAi IiIiIqIAIiIiIiIiogAiIiIiIiIKICIiIiIiogAiIiIiIiKiACIiIiIiIgogIiIiIiIiCiAiIiIi IqIAIiIiIiIiCiAiIiIiIiIKICIiIiIiogAiIiIiIiKiACIiIiIiIgogIiIiIiIiCiAiIiIiIqIA IiIiIiIiCiAiIiIiIiIKIGKNUSGIiIiIiAKIiIiIiIiIAoiIiIiIiCiAiIiIiIiIAoiIiIiIiIgC iIiIiIiIKICIiIiIiIgogIiIiIiIiAKIiIiIiIgogIiIiIiIiCiAiIiIiIiIAoi0ImNUBiIiIiKi ACInJHwYQlA5iIiIiIgCiJwAIQSM0SYWEREREQUQOWEhxKsQREREREQBREREREREFEBEREREREQU QERERERERAFEWoDXpa5ERERERAFEREREREREAURERERERBRAZE50y3MREREROQnEc19FPv9Azd9F zh8haCOIiIiIyNIOIONZxv2DQwTAGNPIInJCk0c+Cb1oI8ZqNZWHiIiIiLR68/X4Y0MxiugplVSK LbEhDUPVCpUsU2GIiIiIyNIMIADWGHV8tMqGDEHbQkRERESWdgARERERERGZrTnNAWkvGtb0REox LZAgrYHdQ56RilehiIiIiMjSCiDGQAhw9ZlFPvLK5cQKIIsrBFxiePWHDvLpG8dVHiIiIiKytAJI gzWGntjUr4KlwlwszhsKscFqG4iIiIjIUg4gBrCWvPtDjd/FY/PtoBAoIiIiIidB01VEREREREQB REREREREFEBEREREREQUQERERERERAFEREREREREAURERERERBRAREREREREAUREREREREQBZH6E +s98P/+h1nssy+f6/kREREREWkGsIsiZBXq+mafn6CbnIiIiIrIUqAdEREREREQUQERERERERAFE REREREREAeRUFTQzXUREREQUQERERERERI6kq2CJiIjInESABwIxcbEd78GnVSIciYUNyyO6Ojvo 6mqjUIwxwQMQgiGEgI3HVYiLyJQh6U6phHa+/6NhnC1RDQeJIoh9L9U05qorVtHGPkwa6Ojqo5aV wQdILS7S9juV68u4O/btrwByslcCo2FYIiKyuJyBYiHBmIS0MkwB2Lja8thHbeGyCzfz2IsS2jva 6OgoUijGxNZgjKmHkEAwFRXiYrYl0g24rpQb7hzmOS/+ILsHqxCBc+Az6I4P8P/+7xN5yqPXEg4O YjJDZsvYJCGrthEXyyrEU7i+jA8e+zoUQERERGTOqrUUE1JW9MBznvpwXvGCK7jknBJUHySkvRgL GEcIVYLL8jNogPceS5cKcDEblNktxFh6O9vJXLW+EPBgSRjz4OMY3Di+NkSUtBHbCpASRzEmVXPy lK8vCiAiIiKyMC0PKBbacNUUCGTGQTGGSpGOJOPiTSXe+qYn89hr+hjdfw9ZeQ0uPZ2iHc7HaGEw 5D0lDZEFcCrbRZRFvcRpAulB0mo3RMNEGVgiUrsfvKWUDkEa4003JrLY1EHUhiMlKfSDHyatpES+ B5skpOk+kp4OGDWkBYshBSoEV8aYCEwb0I4PBRJ7kFrZUGwvQlKBSgq2jbRWI2lLINM2aun6wrAC yKlGw69EROSEiSDLangC1sQkSUJaq9ATGS59eJH3vv1XOGd9kYN3D9C/+jKoHiTwIKiHY0lL0/sw vo2kowSlIfzQEHHSDpVhKJRJAKIOCJ3g++p1KQPGCOkeTLSOYscQIT2IL3cR2U4yu4+kr4sw2ImJ R1XIS4yugiUiIiKzyx8GnHcEAGMIPoMAV50LH37PK7hgkyOq7aP/tPW4/VXwEUmi09dLXVJci3EF SC1h0GGjXkxnL8EleeAIvWTDGeMjB8n8IC4MURkbwI2NY2wn1A7lTdJsRT6kZ/koMStJ9/WTmR0q 4CVIPSAiIiIyK74xUspAMB6TZZy7sZe3vPFSNpyW4IcCtVFPqfcgUXsKAfC9Krilrlwjsl0QxZTL 4xRNTHbIUexYQWXsAKViN3H/MuLEk4UqPgRKpgvSQCjXMCajOjpIccUaisPdVPaMU+qukZRSCKdB VlUZK4CIiIjIqcgANra4zBJCSpuFlz/30Tzi0esY2vYgPb3rKXV3UB3bTbGviK8aQmgjIlXhLWWd w4ztt7QXemlf0wGZx48WcKSUVlh279/Jnu3DDAwHjO0gii3FpMaGNR2sfdhKGE7JKuuxY4MkPUXS 3SuIKwPYwoOkw2sodmjAjgKItNbBQJfhFRGREyQCsDEODwEedVmRX732Isb37KBnwwZq+/eTJAnF nlWMDw/T3t2Oq42DT1R4S1jlUBcdazJcLeW+20p877ofcv7FvWw6Yx0/+Np93HZXjYMHBwk+oru3 F+cyhocO0dFRZN36YV76q1u4f98ubr/1fi68eBNbzu+gdqCLqLqF4rLtUFmmQlYAERERkVNR8OCq AYyhqwS//JTLWHlamXSgHUYHiEplnE9x422UomX5jeqyIbAKIEuZiXqBcbY9MMwLX/RPPO7xj+SR jz2Pt/3F+yhxOmeet4ynP+NStpx1GrXqAENDQ4yMruGuew9yy20/5w1/cBsv++0LeWD/If70l/+T d//No3nyU66kvGOMtqiYd72JAoiIiIicevLp5CnFtj76ew/x6CvPh+H7iJNegs/wLiNJEuJCgTBS I4w4okIvuo7q0lZc+XOu/67l51tHedErN3HhJZt597u/wFVXPZNrn7uGsX37WN7dRpKNE5chCiX6 +0tsXL+OJz/xEXz0M9fz7r+8k9/4refQu+KbbLsv4offvI/LLmqHaCU43Wl9qTnlB9UF8iFMh/80 OJ//zDTM6aGeG6Z5/nSPn83r+QCZz/8vIiKymMz4IZ5wxUoett6AX4UxBuMTEtMNWQLVMqZQwxQd mKOHD+/yn+ANAZsfm8nvsO4MEDIwHmzI/4/Ll4Us/91OPAdjCCGQOYcPAZIEMguZbb6OD/nreBsR Ipsfd7FgYzARPpgpy/L3ZPHBTPlpLMcbCBaI8v9P/t0bnPc47/P3Y0y9fTDx78Z79t7jva8Xsmne rHGxJUQQxQTv8cUYE1mwBl+pkAbH/t0bePv7b2b77pt59YtfwX98/Ec8/pouXvb8DVAxrO7ppt3E jA6Os298DNPfTtwTUfBV0t27ecXTzuX5LziDv/2Hj/H8F1yD7dzJa/7wBnamu2HYQMHgUw+mE0wb aZqSkoIJEI5eRo3t1NiGjbZWYxtO3lZTtmX9Z7ptEkIgNBprLqr/5HUYY8DavL7aQAgJgbi+vN76 NoZATAhJ/bG2WTeaz59UL2aqE61YX2bjlO8BMc3/TC86SkR7qG1tpnn+0erGTK9nTf4jIiLSCsfO 3t5e4nk6jWmLk5ojIdQb8YGo3tDDxPmr+jBx0DYTjS7vHISArTfkDGAbZ/iyDAr5+m19vfmNDwPG gw+BKC6A94TMYYzBRvXGop84K2iMwdho4kAeQv6cECCKGq3BZqPUQN6IBKJG47D+HGMMUZJACATn MFGEsRbTaNBOeg3vff65FpEnkCQJJo5JR6p462hLLLZ/OVFljG9+6W4ueWQ/11x5CR/6wBdZfVrC 8573OPb+fDvbhgbYvGYzu3dsY9myXpavWUbUDpVKBectmQ/ccWOFy6/qZfuD5/GuP/oBz/uNTdx3 3yDXf6OP9ot3sry7F+c9BVeD2BLHMSEiv7mlcxytIhpjm9vGGgNxPLG9vJ+oS41yPuzssI1icA7v snxbxDHGmnxZmmEL9fqCxQQHweeXqG68fiEGl4EPeJcvt7a+jijGVat5vavXkWYdMmaiXsxQJ2w9 qLRSfVnwABLIx4P6xhdNZ+cX5SjgPMQ+qPhFROSEOW3linrjx8+9gVurTA0kodlyxADBFvHOM9E+ N/kPBgJY/JSzxlhbDyB528S76qTGaN5YM/UhBRbApPh6A9VgMC4PImFSgy4AJviJABQCgZBfknhS o7FxNDYY8Pl68A5jLcF7XH3djQDiXEo8+ezk5LDSMk2NQKVSATrp7O2FrMzo3t3EhYQHhsb5z4// mBe/4UJWrFjBPXfewave/HgMh+go9nPepg5cNkpPb4H+/n4MJe7dupNyrco5Z21moLaTnXt2s7K2 iYvOr/LJ7+6jkG3hMb/YxQfe9w1WLbuKq9cYosSCr4CLMFGUl3cIs2p81qrjRFFEFEVAwGdZvq2N wVpL5jKiKMq3GeBD3hPVqCuRicCEPJ+YAMHl9cAEbGRwWSNAWAguDzWNHGktvlIG4zEmNNcZgiNk HtI0D6jk9dbUP1c4PIzOVCdasL4seACJLRTbLEZN38UVICSGJFIXiYiILDxP3gMSgpuX9dnJXfzB TOndwBhMgMjmYeOIoSYhgLH1g2G9x2NK48xiIjcRCkx9iI2tPzdACBk2jvIAE0J+Zts7bBTlQaHx OiHkZ14BrMnPrBsDWdZsbBLVm1bO5T0ohOaZdWMMcRxPvH9riYtFfOqmBCQzqdHZCmezHY5SqQQO hg8O0N1bonPtOgZ3ez71+W9z5paLqY4NcsvPttK/opOu4hgHd++jv+d8QrwP0+fo6OggDpbxsZgf 37CTH/34Bp79rMCyriLLNjjuvxmWrXScd6HjB/97P+sf3sklV27gmzfs4eEXLqOvvQC1KvhaPlTO 18cyJXZim8ygUEwmGkyAjcxEkCQQJ9ERf7eNXi2ANM23YRzXe8ryAGOjCOKYqPH6Bgh5QJocHiwB TJSP6JrUW2FcvV5F+Xrxk3o6yEOIaQTjGepEmBSUWqW+LFgAaYSsfSOer99cVvxY7PwRIIkNDw5q kp+IiJygBkRi8T6b1Rj8ozJTexVMqKecZgsjnf6xjWE1cXGiJ6IRahpnhV2GScyU9BSCyx/rTb0h acDljT2o5wYswee9HlN6OCYNj2kGhkZD0vj8dvEwMaHTGIhDs+fD1huxaa2GtZaoUMgbspNeo3H2 3TR6dbxf1G0dGp83KoCvUqmMUyp1MlyG4XKRBw5s5UVnPI1v/c+POe+ytbjxQVxWgpUBUyrw4IOW UgzFqMJ92+5h01mrOX3Tc+jv7WPbvXdw/sW97Pj5HtxQgQ1nFNl3YIRzzrqCf/v4dTx4cIztO1bT vmk1bfXthInwfnKPxFE+QKFEqFSo1WoYYygUi/mwuSyjVqtRaAzBa/RcNOZk1OuZN3kvkAmeQP5v jMETsN7l6/Ke4NxE3Qh5RfLeY+sh1qUeV3+zEYbI2on3X399E0UQWYw3+HqdMEepE61WXxYsgDTc cH+VJ793n/bCIiIip5B8Xnhab+Q75npNG5dlQH1YlYnqDTzbXK/11YnhVfVGYaOhaBpzNWKLMRZv Gw1A0+yFCMHUh+zkPSXe2Hw+R0R9GA6kaYrLHNZakqSAMQbnHFmWj/s31mKtzT9zPYg0hm0lxWLe 8+InDdEyNp/YGccEMkKj98VGeAze+jxj+UBk8zPmjeE3zQZkqwyrMTA2Ngauh+7ly8lqAwwdGuCu +2pEbaugcDsrulcwOpKSdDpW9p/G3XfuJu7YS/vwOP/576N0tQ9w7TPPI+kos3r1Mg4d9Nx9562s XnEaPb0x3Vt6CaGdUbuf6268jYfvPpdi7Hjc45/IbXc+yPo1q2jrivKrCNgEQ5ZHo1nUP1dLMVFM 0hYTQiD1nuBSrLXEpbZ6r5vH2EnDniYFEBvFBOdw3mNtRFQs5o9xDpdlGJ/Ww2NeR62xhCivXyEE fK1GiCwhjrEmqq+2/lznsYWoGXSiaFL4od7LkrkZ64SZHDhOomFYcwogxkBUHxcpi7xvCOCC100J RUTkhASQNE3zxlKYe+97FCX5EBVrwORj8X3IJz9n3hNFpTwEHHZVoCiK8h6F8jgYSPE4l58NTqI4 H44SBUyU1Bv3Bo+pn8W2WBvnV3PKUqK4gI0a8zhMfWRXTJzkcwfC4Q0/k+eL/KyzySOGiYnqE5xd fZhOHEf4zBEXSxOThOOEYls7OEetUoF6b4iph6zG52zMczCLfXUjC3GSENKUdDzFlAI9a9ax/1u3 ctOt23jja3+Xcvleevo6GRtNSEcNZ59zHgN+Lw/8/AD37NjO6pWOoeHT2b17iGL7Wgwluro62PCw FcAhYgy26PGFIl0959Ld7XnlK57Huz7wffymGlkWAxMNcWMSsB5C9agBJHP5dmhsG+PcxByQKMJ5 R1RImkPwvHPNOmaMxae1eu9Vkvd8+ECo94xhIyJs3gti4zzg+rzuElkiG+c1zkYEG+PrYdN6h2kM DwyeYOtzSIzBe0ctS/PemiRq9m5MWydasb4sdAAJATLntScWERE5hcSWfEhRFNUnoUdzW2G9ZyKk gVpwpJmjnNaophmpcxhbaAYQ732zV6JUKlEoFFhWsvgso5JVKdevKNReKtEeFfJLxmYZmQtUs5Rq LaPqHJkPuGAIBgo+o62tjWKxiHOO8fFxsiyjWCzS1tbW7AlJ05SsPsckjuP8nidxzMHxUQAKhUI+ V4L8Kk+1Wg2AEoa2tjZCCFSrVUqlEr29vdRqKQMHB+lMIpIkIUmSvJHcmHzfKmcVQ361JZMUKBQN I5VBrBlh7/6DxMVO/uBNf8YXPv4sMjfG6HCJO35+H6dvWc94qcLmzRfy2j89i7GD++lo7yTZvYHd 2zq4+Zbb6O2rsen0ZThn6bGDFDtWsfOnMbWsRM+yGu/4s/9i38EesvXLiOJ2iKq4bIQoCphQv6St P/oQrGqaMnDoENVqlfb2dvr6+ojjmJGREYaGhnBJ1KxLIYTmtjPGEEURJQ+dnZ20t+f1Y2xsPB+6 VSjQ1tZGVq0SJQYTZZTTjNHxMcppCpEliYus7umiUq0xNDbIWDWvPx3FmJ6ODtqKBbJqGerzg3zw lKsVxitloijCGWg3D1En6sP8Wqq+LFQAaQyrPGvDSp7/5MshcFKkraUqBE8URXzqf37CbffuUoGI iMiCqhoomghST81aCnNdoa3iq22k7SmuNMy3v3GQV7/qWxwIPRSXjRMGunBRmeUbI/bsGqW/2EU2 HLCM8sSnP4I/e/35rF3dx3vf/zX++H23s/ZM+PRfP5Ur1jwMkgpUC0TFwA1bD/GCl36XRz67wE0/ 6GJg7wMUkgrJ2HJ6Vx/gla95NJ/7t3389JateKBQhEsuuIzHnFfjfR+7hcFSRFRyRAfhvNM7uPJx F/G1793DA9v2YhwUfTsveOHlnH3JId755r2EpIth7qZrHC66cC2Puraf9/75ffz1m6/hFS+J+K9/ 3cVvvesGPvC65Tzr2qflUyzGhrCJBecxST5B3USLvMF9fU5NYqgMjlIolojiEi54hkYGeePvPYnR 6mo2rfbcdftPWHvVs4mLeyiWLTtq91Md7WTNuk5qYR89DyvTU1rL3oMFqpVBuvsLdPkCwzXDnduG 2b37Ntb3bGZo2PH837qcf/0nw47t3wfzOCrZMKX2CHzIr2JWa8yxGcOn3TjnSAolMIZatoPQsZzr bzC87u2f5vato5RsJ8XY87t/cC4bNie89U9+xr3bY7LuEr21/bz4qZeyfMUa3vH+L+BtL85UKPZU aD+4ir/520086xmX8JMbI/7o7V/ihp8M8saXP4s3vtGQFNphdAwfL+M9n/gh7/67G6iOdxNHnhXn dvD3r3kSX7zudj764Z+wotsSR/0Ml+Gv/vIKnvfULrK4HWsTfBjC2G5+/y038NEv7uJRDy/w1Y88 Dz8+PmOd8LW09erLQgWQ+uhPzt24mrf+3nPrs5O0Q140LkAp4d7t+xRARETk5FNrwwVDMe4F0825 ZyW86nfP5fZtEf/x+Vt5zlMPcsZZj+U71w0ysGsbG8/rZNXKmB99f4z/+O9b+MNf28gte0f5xIf2 cNVF53Hjjbfz6Q+PccVfJtT2RxQKZXw0yNj4NqJsFDPSjh8boavoWLVsA8Pd45yx5Xw+/amf87Nb DvHSl17NipWGbfffzXe+cge/ctkZvOH/XsmN93q+8dXrec4zzuPCzafzgxt3sOeevbzq2U9g7aZR fvidB7nuCzfT27WWcnkPmzeWueCSy7nx5v3c8NP7efq15/Lq3+zkre/8Aj1rr+HvP/IDHr4RHvML V9He1Ubl0H4KeIgSsmqNOIqxSQx+cS8yE0UR5XIZXEpkbJ5ICPzClY/gZ/cP844338xv/N4unvj4 8/jetwL7Rm/hzJVnc8vNd7DvQcvlFxru+9EhNmw4h/hgmcH0AE+/+lIKKzthaDckNSrjKas2ZNz6 /hq/89pV3H9nF3/61u/Tfprlja+8lpXrV5EdHKIyPkbJJhDyCw9QKEAcYTJD0tEOLqU6PEaxv4Ms ivnMZz/Hrvvb+H9/toE1a+Cjb8/497fv5dWvewRd4z/kKZdu5Natg9To5Ivf/Clve303b3nlBaTt RfYMRvzzh+9g8wV7ueSK5/DP/3ILf/9P32XZ5g7SyJMWRxjPlnHLg7s4rbuPbfcM8S//dT19q+BX nrqKfQ8O8D/f2sM//usXueGOAc6++HSe8tRuHtw1zKf+80H+59u38YxffDw7dhps6SBrl6/l4x++ ni989i6qFBmtOhwJ0UPWidarLwsYQHKZ89TGyvmNSdUDsngnJpzHuLybWkRE5KTT0YYZHyAb9dQq CWt6E17zu5fx460dfPGr9/D8pz2aa551CXfd/0F+/NMR7rkT7r13nF37A6edZXFF+K8v/oztIxWu 3VDh0B74yGd/zDNe0o7ba9g/5Hnuyx9F0j1OJdxCZDtJSns4NJJSGK2QDh8gGl/G+q4eRnoHeP1v XcrDzonZe38391zbwebTu1h+vuXv/+Fe7rgO/uB1j6SjI+HzX7+O5cvh7X91Lh2nV/nCv/fzqy/6 EsQXsHxZJ9u3DbFj243szTJWRKvpswmvev013Hjzfp77m9/kvNXL+Mr7X8S65R7SMq5WxnaUoJBA tYoPAecykkVuYjnnaGtrA/K5P+39HfhDw6xZ1seqXsPVv7eBjl7D/v1Fzr/kLL7833t55e8s46zz Ek5fvZmduwbZO/IAZ68ep3hale3372XXMPRH7RSLnoFdNbpWLOeTn9zGueedT7kWUY5u5rmv6GHH nv30d1pq+3cTkVFqbwcKUIWsViWOLWEkBVsiKw8Tx5Ziby8jIw/QtmIFl1/xKK574Ca+9a2U/TsP Mb4r4cUv6+NZLxrlxS9/E+99339z302ePX6Uc7d0cfVVl7H+xUV2PVjlVb//Sc5Y0cMHP/xLfP0r P+Av3nETfes3cMUvXMr1P/ksP73lTj71mXv5+nWB2vB9bDn3Ggb29/GYJ2zkz//m13BDZS6/7I/Y sbudM87v47vfvYdqeRXelxgqZ6zftJGP//tNXP+dgCvezgtf8CQ2bVnJez/wy3zsS3ezc+vtkLj8 Rocz1ImH+tuSDSCQX1PbmKAOkEVkzOTrWYuIiJxcxke3095moKOfeCBQLZcp+gjGA1mlTDoyRFfJ 0WM66ATOOb2dTeet5tZbx9i+az9f+vad/NN/3k3S3cP1391Of+9GtrKdN/3lTbRX9nDdjfCzfQkH 9u1nHMvIWKCcZvSvLnLm2aczPtpNsrZA1Yxw3zj89YdvYvWKldy/bSuf/cQ9/O2fXsW1W86nkHRx aBBGxx3dKzuIOroZTR1vevNXqHq4+x5LaEs45Bw7BwKXXnA6F110GtsPPMD3vlLDRrtI4rN52f+5 iq98dxtPf9alrF+eMTp0iI62Im2l+kToSiW/4lYhoVKukMTxom6fJCkyOjoKSR/tXV244RFq5XHW rlrP5nVtfPWzBzl4oMZv/NYGnvp/VvPONzzI174wxFWPXsWKtWPsHKhwyZUX07tqBdvufoAsW4lN VuLiceKelDVru/jsv9zCd755iHf84y9w008P8N533MO6tWewduNZPGxdP9ZViZI4b++4GpiYYA1E CaYY42uBuJRPVE/Hxyi1dRIXClx//fX89Ge7aO/ox7uDbFprWHPBWXz560N8+TMf4lHXnMWVj13F 8PY7uWPbHnbt2c3y7mW89k++xDd/tI0PvvtJnLPqcj69fSuVFHY8sI+/fvtnSdwKbvz+AV77a7/E J/7uQrD3cM8DI3zuK4e47SbPb//GP3JgYIi7Dlh+8eEpP7l9BxvXr+SRj3gYe/YeYuvdsG/vHv74 zS/ihS/cjk8uoyNeS7W8l/GS5T8+dRe1/SVMNgy2MHOdaMH6ckICiIiIiMhctPeuxI2PE/YPEGMp 9vZAaCeuHODhZ0BnWwIVjy07zuzx/M07nsJ5F3fyl2/7Lv+fvfsOs+yqz3z/XWvtdFLF7uqk7lZq SYASQUJCIFDAgBhkGy7GcQh+HK7tccD4ju2Zcbp4rq/HvrZn7BnDGBtswMYYm0GGAREtJJElgRAI qRWQOld3hZN3Wuv+caqFbNMiKHQ1/X6ep55++tSpU1W/vWuf9e6VPvbhgi99PGXH/BS/8tvP4umn nsVgdJg3/P0yH313zJXPewnd4W288feuo9OEV3/3lVx40TzL93yYI6srPHjHZ6i7EHfhlT9+Dd3d nne86Qammgv46Ajnn3smT9l1Om7YYC72XHx2izAcMdVocM137WTfgWXe/a67cHaG4bjgR171dE47 fZGdMwN+7kefy7XXnsUXbj2bn/jk31DbVfADnrQhcNGpFafMHgR2kkUW4xwmiqAsGY1GRMlk4n3s jn9TrSprpqenoSjoruZMzXdoYKBY5f/4nufQ2XQDX7p1mman4Lbblnjla0/n795wgL37d/NvX/NU LnlqQj6oyB/scurMRra2VkmmKkhnGB9c4e1vup/Pfu5efv63zuCuu++gMENe+G8uohp1+dGfOo1O axq6R6CGushxUQppRlyBLyqscZOlbN2YOq8gNIjjDJ8PoeqxJU7JkiEbFxboHQp8+O/38H0vv4Ld d9zPl+94gJ1n78OvRnzfFdu4+MlzvPCdEhUAACAASURBVO1tn+amz+zm137tCl5x1Q7y5Rv5iR87 l6uuORXfdix1a379tX/Li597NhdeMMYv7cdUq+zodPj+lzyFd777Ht7/9jsgDmzfsomf/4ln8o8f +TLvevtX+cIH91IHy4yJuPDsWch308x6lKZkZbHHbDvGhgFnbhqx8NQdpK0ZWO4d+5yo63V3vnwz JpM5vtUvWlvu68XPPo9/+MOfwRIe2r5ennjeB0hjfuSX/pS/uf4zKoiIiDyuEgdv+LWreNX3nUkx zEnso5z1WnfAJMAYohWoSnzVYeRS9izv48y5Z2CmvsLBxZxidYr5+WUaaUm/N0NeG2wJPX8/p521 BX9wMyFaIU/6HD4wy8LcgGW/yGCpQ2oNc3Nj0tTx4D0tpuY2sW/pc2y3TyGEwMymgLGbWVy9m8XD OTMLMDe/hcyNwBQMljzdIzVbtifQPATZNg4+0OHIeB+Ry6iKnLPOmaYq7+HBz8+w4xRIp2coRrB/ qY1JumzdvB9WnsJXD97Lxq0bmWp5qMJkt223tgzr2kpb1sWTZXsf52HuVR2IGjFf2rPEZS/5ACt1 F1eDxVHaGucjrnvzC3jRc7bgezFVMSKJgJDAdIM9h+7jve8a84Hrb2XLmRWv/eXvZfHBkk9+5Ksc uM/zwmsjTt15CtMzGZ12zN4D++iu1uzfP+LmG2+ninfywhfv4knnz/Bnf3wnH7r+Pl7y0k1ccXmL 806/gnpwJ3UdSFqtSZ0etmt9OS6JCIQ4ZVQt0WrNgp1nuLybxmybpZVN+H7FkHsZ+RV8/0y2bGrQ njnIuGjw4JHbyY88mdLWXHDGRlI/5vBKl73GsmPjFLPGUOcHcNlWfNrEtkuWl1dYetCxcWqeqU0l 1XCZqGxAlrDieyyt9klHCYPxMp0dDTb5szjov8wXbz9EtVLQ7EwRzURc8vQNuEMZDM+A2a9CHEO/ gNYRymSG5QMZC2kNSXHsc8Jy/M+Xovstv4Z6QEREROQ4G1JXnpKaLI7BBWxd0YotZ++col69l+6h ZbbMb4RNKaxU4CKmZ2A8zsnSOTYUW6FrsaaGeAvN1T3s2Nqg6q+wpTkLW7fgB2Ns0oNsIzvmwKVN 5nddjA9fIfg5TOwZrD7A1KYBG0/dSTFeJdQeupPdrluNKVpnTkG5QlidxfiEjUmPTZsXGC0dobF9 I3THREWDXeeeT3H4kzDeQpwtsXMhgqkzGA2WwB3hjDM2QGkYjoY0TEJZ1bgALo6xaWOygWI+GVpz vJc1MkCn1YTgGZcVzWYHxn16K4fJkjaNssNzLp0iTS9lpTzET7/mOv7Tbz+f1/ziBXzyk+/lgx+M adx6iH6vRzPbSD6MqUxgw+aUp73gSi69apoDd4/4oZe8mZf+8NN44YsvYNc5y5x3bgMW78I1UpxL IG5CGFDXOcWwT6MzTZxlkEDVH012OE871AcGNNMGuILM9mjNHQY7S1G1SLbOQnUY6iZxvZEn7zwN tp8G8QOwvEIYJ2zY4dhQjqmGBSQG5yIwFYOlPdRH+szObWB2hyOMDzI6WMD0kCiZolwqSKcCO2ab RK0mjDsQGXz3HjZkUzz/imfCYDfBe/p+gbp3EFevwMx9DMb30qhPweanQt6B2SU2bChgOA2sPMI5 Ydfd+aIAIiIiIutfug9bt8E38aQYX2MiD2VFNTREjREz2Sn4/phQr2DrjZioQzleJmtP0a/7tIvN YG9n0BlBeQqZzXH9VWhPUYwLkrSgbnhKEzCjIWGqD9ZRjsZE0QbKcYNGs6LpYkw1gOWcxOTgAqEJ plEz7K8SVQU2KsC0MaMaN92Fcpk4akGvAOsoqhizUpBs28rS0iqNqKDRHcHgXkJjgcbCCmHfAiYt SKIUU1uSLAEDxXhMZD02WtuYMI4mq10eRzGGPM+hbhJCRFUGIuvobNrIKKwyP3sqMxt2k85Z/vZv K848N+eLn0v4qzfcwPNfdBYvf3GHyLUYD3N8vUrczFnYvJH7H+hxZHGVX/v3n+CS8y/gac/czN13 rPDynzRcsOsp1IemcGYfVVkQcg+hxhtIWy2iUE3u/o9yQj4knt3IcPUQ9eElsmQTtGuKpbtpTW0g HzZI0xauaSjGh6nKvTRb8xQrkMQbCNXtFGaBKgPXKXArU8RuM1GyRC8Z0ym2Ug37dJoZmCnCIYNp GAwVjXZGXQDjHrG1xI0Gw+4KZhxws7Os9Pcx47ZTFF/GHg7YosJkKdhDRFEB/jQY7KU1v4tqNMK6 3TDdYDzaR6M1A2NHFZXHPCeKvFx354sCiIiIiKx/o1MwNpDEk92cvU0hlBjTw8QDcNvwRZ+qLnHO YdIS6j6xbUDfkSU5VbYEbCMdA6wSGg0qgGKyaWFVDjGA8wlQAAnBQ2Rb4ANxMqSqAFcATYhyYLKp IAEYWhILhBIqA5QEB1XeeqhFVTHZeNA2poG9VF2YihyM2lQNAE+Cp15qQTaYfJ2HytTgJytZ2tji CfhQT4YZPQEbPkdlC5IcU2/GFl1a7GAUP0BJDZVlZGr6JiNENWnUw6VtemE/UWXJxqeQ+wO4eIoz NsX8ymu3MyouYu/+ZbZv6bB3372sdndw+223cuV3ncsLXnIeN994B9e95QE6nRadjQd43vkZ55/n eOX3fS/Enrq7SrU0wEQ5gQysx1iACgdUeYVxMVVRMlnyqUXVH5K4NjioWIQx2HQ7Vd7HOUeVT+pt gSTeRlWAnTpMFQA3i6PElUBpIBlTMYYAjTylogsxVDWTc6d9tHIJ1AAZVbZ2MPsjEpsSmlDlq7Tj FhVLRGwiAHXqJq9bB3yd4BtHsIXBFhURhjp1mHFNx50KoU3l+o94TqyH80UBRERERE48LU/R7xPb GBsbxqMRadTCtHdC6Sj7S9ioQZy1MBEEn1OFPjbyOGuI6pZq+ChUyT6imQTXq4hbsDpYJIS14BUa zJiaaT+FCVNEwzHlOKHV2YpNEhjNkE4NoCqgKKAY0ogzzjxlB2duPxNCzIc/eBPdaUu7HJCMBsyG kmx0hFO3T3Ht91yNq2Ogxnf75HkPRyBtNCYN/LImMt/ZzdWQxIz6Q7JWhrE11DUwIvRXiAwQptb1 +cJAAUREREROMONykawxC6EJeU5mSoIfka8sMh4nTC8MCTiCTalMRFlHFMZjTMBF4IpcRXwURn4b 1XDMntUhSRvqQT7ZaxAAx9gMONC7C9x5MN+kGnuGoSY1OZXtUY8Xcc481KoM5PiqByHCEPG8a3bx 7KsvoKy6rAwe4MxzN3HBUy8nUDCobsfaDfhQ4JMSk4JxjiqCuiopbElkv7MXOjLxNMlUk6qq8UVB 7Ay+qPC5IZqdY+SPrOvzRQFERERETrwGmE3wPsWWbfAxRCVEfdJOTNrucGRpzO7dh/jsLfv50pe7 7N3rWVkODEeGuvbUSU9FfBTakaFwK/ikwZ6DAP5hAaTL2MMP/NQN/AA3qFjHwQWnz63z80UBRERE RE4waTrPYGlMy3XB5RRhRDK/g8OLFX/31x/hXX9XsO/gEnsWj5ADNR4o8XZtlFBIVMRHIQlNPIGa PsY0CGGkoqwjn7+v/x13viiAiIiIyHE1OjKktdDGjw8x9hUm2cx73nsff/Kn/8Rnbl2ixyRo1EAU p5gkoa4DvqzAgK1KFfFRcI2cMvdrYU7hY90Jxbr6cQq+9vN8u+eLAoiIiIgcV43ZeQ7f/2VmT9lA Xs/x+3/4Ed7wF1+gm0fUdHAupfI1hIqqrKCqIBggJk5iYKgiPpoAWEwakcZM9kJc29dO5HGjACIi IiLHVXlgHxuedAF7dx/it//o3fzNPzxAN8zhoxHB9ajL3mQ3PMvkXw8mgMUSCqgma7TKt8mFeG31 Vk8gAEogogAiIiIiJ7KqhGQDVT0gipehTqDYQAglVXoYM9MjjNr85h99kLf8/f0UWFy0RKjB+Ijg /3WDeDIky0/SyDfYd61JTEVNHfnJtg2Gtf0bwDHpTPHhYQHn6Dcwk3+NB+OnMHEXU0IVAzEwjImA ihN7CFgd8ofVVEQBRERERE501kCoMcYQKocxkwTgjSdOE0iezG/85zfxnvfeS5x0INRUfojBELzj 0d6RHx4NCF/nZf5Zg/sYe7hNtsTo8lDOKNc+KNVXIPLtXBJUAhEREXncWxuhwFqLryMIEZATbAlR zCduG/FX77qXIznUNqYoS3wNSdRg0tUgIgogIiIiIt90ayMQfIkxFkIMwYHzEBsGY/iTt3ycQ0Ow zQ7jfACmxABVVWC+0fgqEVEAEREREfnnIgIl4DEmmiy3ZCuIYr761R7Xf/xOBjUU+QhsSdqK1+Zf VETWq3wiCiAiIiIi34LaYQzgC6yxYDzelATb4LO37mOlVxDWVmGa7MJdYcNkcngVxqqfiAKIiIiI yLfARxhrqX0B1oOv8b7C+4xPf+oBfAVRHE9WnLIRxXAy7Mo5u7YsrIgogIiIiIh8s0IE1kIoJxt4 hJrSV9S14757jmCw+CqABxsiLBGxySgrC0aT0EW+02gZXhEREXl8uYoqDIlMC3zFyDZouIze4EHu HsZUDMFP5nrU1WTIVR3WFrjVFBCR7zjqAREREREREQUQERERERFRABEREREREVEAERERERERBRAR EREREREFEBERERERUQAREREREREFEBEREREREQUQERERERFRABEREREREVEAERERERERBRARERER EVEAERERERERUQAREREREREFEBEREREREQUQERERERFRABEREREREQUQERERERERBRAREREREVEA ERERERERUQAREREREREFEBERERERUQARERERERFRABEREREREQUQERERERERBRAREREREVEAERER ERERBRAREREREREFEBERERERUQARERERERFRABEREREREQUQERERERERBRAREREREVEAERERERER BRAREREREREFEBERERERUQARERERERFRABEREREREQUQERERERFRABEREREREVEAERERERERBRAR EREREREFEBERERERUQAREREREREFEBEREREREQUQERERERFRABEREREREVEAERERERERBRARERER EVEAERERERERUQAREREREREFEBEREREREQUQERERERFRABEREREREQUQERERERGRJ0CkEoiIiMi3 ol0DNoCFpLZgy0f+gmZBtFJClpJX+2ikDQgRY1MR+1UVVEQBREREROTYcqDC4b3BBAN+7hGfP+6O SEIbV01R+gEpU1A6isqD3QbsVVFFFEBEREREvr4SCNZgHeDAx4/cixHFARfFUK9gzSpEgbqw1JGj dj0VVEQBREREROTYPJBmFsIYP14FM/XIz68smDF1cNAwlDnErs20jbFlUEFFFEBEREREjs0BZZlT Y3BpG+JHbk6kSQp5D2cNWZZR9T1EBlMN8aV6QEQUQEREREQewVQzYVw2WS5maKczDMePPIcjSRN8 GWHiJmXlKMeGNnAwX2FmcwQHKhVVRAFERERE5OvrDuENb/4w/+sD11P2m7TSziM+f1SUJIzBtanT imaYolV7lqNFPvV5o4KKKICIiIiIHFvFFF+85zB37gHqmrLa88hfYKCZwDAfQFThqi5NRgwdkGyG /ICKKqIAIiIiInKsPHEYC9QlePrfsDGRpVCOoW0DNk7o+kn4cDVE+QFylVREAURERETkWLwF7yMw EZhAZR85QvTHKQCFjwmjGkxMbTPq2mMogUJFFVEAERERETlGAPEpmBrqCjBgv1FrI8dlKXXRh5rJ 80MJFkLUUP4QUQAREREReWRxVJG5ydAq76NvEFgq6Fe4SVyhaWLyqsSkMB7PACMVVEQBRERERORY jYeca67YzkXnbqLs51jrHvH5lgaj0mCTAbGJcUWTyh5hEBL+6u0PcmCgmooogIiIiIgcQ8PCCy7f xatffhFZ7ajNI69i5dImRR4w2SrkYAbTRDM9Hlgd8dGP3sqB3aqpiAKIiIiIyDFYC2mSk7KM746x SfsRnx9Wl6lNA1OPcVVEVDXBVGRRxOpKG+irqCIKICIiIiJf36iCUJcYU2IMeNt75MCSZDRoUUV9 IhowjimXewxCQtbeBoe/oqKKKICIiIiIHIMDV3SgTiiinCS4b/AFCZU7RDRsAzWj9DAN12LDoGIc tAmhyMnGqgQiIiIiIqIAIiIiIiIiCiAiIiIiIiIKICIiIiIiogAiIiIiIiKiACIiIiIiIgogIiIi IiKiACIiIiIiIqIAIiIiIiIiCiAiIiIiIiIKICIiIiIiogAiIiIiIiIKICIiIiIiIgogIiIiIiKi ACIiIiIiIqIAIiIiIiIiCiAiIiIiIqIAIiIiIiIiogAiIiIiIiIKICIiIiIiIgogIiIiIiKiACIi IiIiIgogIiIiIiIiCiAiIiIiIqIAIiIiIiIiogAiIiIiIiIKICIiIiIiogAiIiIiIiKiACIiIiIi IgogIiIiIiIiCiAiIiLy+IkAnOogIgogJ7egEoiIiIiIAog8Qbz3KoKIiIiIKIDIE8NYo14QERER EVEAkScyhagEIiIiIqIAIiIiIiIiogAiIiIiIiIKICIiIiIiogAiIiIiIiKiACIiIiIiIgogIiIi IiIiCiAiIiIiIqIAIiIiIiIiCiByQghB26CLiIiIiAKIPFEH0OoQioiIiIgCiIiIiIiIyL8SqQQT 3gcCAQNgDNaYr31ubZjTwx87KoTA1xsEZY2BEPCBtdc1GGs4+grBB/zRxw0YYx76Pg9n+Nrngg9g wK69loiIiIiIAsgJylqz1tw/Rpg4BmMM5tifZJIT/vUzjDW4f/H4I30faww4hQ4RETkBeUewBuoa ooBJHISavILaxKqPyMnW7lYJRERE5HEVwmTOorWTkQNVDd6rLiInqUfVAxIIa0OQtBLT8b2uBwg6 CiIisl7fp6pJAHExpqrwxoMD68BZvXuJKIB8C6y1JEkMIYDR8KDjxfkASYzTMRARkXUZQMI/G3Q8 6Q0xxNZjg3pCRBRAvskLCcBX7j/Ir//xP0weVNv3uF7YnXN8fvceFUNERNYday0+1BjvAYsJBgj4 usTXhQokogDyzdv94EF++03vUxXXCa9NCUVEZD1yBk/A+sn7VAgBqgqCJ440HVXkZPMo/+qNej7W Cx0HERFZxyajJyzYtXuftSdJImZnp1UckZPMo5uEHgJ1rbvuIiIi8gi8f2j4NsZOVpW3gUacsnF+ FtAQYhEFkG9Su5lx/q5tWGMwmgB93ATAGjhwuMtdDxxUQUREZF2pQ02SbKAeLeOijLgMhKRDaRK+ ++Ie774RGDaYJiVnhTqNKMsEfM2Uy+nWqqHISR9AzFqj90mnbua6//ELzGaJAshxTSCTVbDe/Hf/ xKt/482qh4iIrCsujqB++HLxntoXJGmTpzz5LOJ6D5UZMQwjrGlRFgPiVkU5hHE9BXRVRJGTPYA8 1O4FfO2paq8lYI9r/gi4yuO9hsOJiMg6fJ+yBlOVmMiBBWOBugA/4ryzT+OaS87k+pvuZGQAa6Gc fLqRwmgUqYAi32Eek6UnFD3WAR0EERFZp2rvKeoKFyWTByKLwVMNe2SthF941dNIaqBqQj0CA1kw jEcW7JIKKKIAIiIiIvLNM/iHhmqHqgZrcXFEVeZQjHjORbP82A8/BReGxNkcES2K8mhYUf1EFEBE REREvgXOWCIDwXuqykMNuIgsTqCqsb7k3//M1XzPFfO4/jKhTgmUdKYmw7FERAFERERE5JsXPAZD CIHIJeDNJFjEDTCWUAfa0RK/+8vXcvn5jma0RNKI6fYq4pCofiIKICIiIiLfAl9BAIvDpClYR1FW gMXXFqKSjJjTtzX5n//9VVx+xUZG45rYzGMpVD8RBRBZTx7a2ElERGS9MhZMABugHEMoSWIDPsc6 j/Ed8t4q5eAAO7bHvOk/v5Tfed25nH3aEYKBzE3WWonTSW9IJ4GOhRSItQqLyAlHU7tERETk+Kor 0s1boegyOrCfhfYmXvdjL+PZT38mH/jI53jLe77EvsUh3mRgYnplBaaEyIMNRAXgMiproMoBjwGM M/gQA9VkIrwHHwATYZMGpi6hGuOxRLGhrCY7HhqTEHwAagye1KUUtSHgAA+URLHD14baO3CDE7r8 jXqWAoM3y4TQQfuuiAKIiIiIfEcbFgWJz4kiSyNrQt7DFWOedU6Ly558FT/6iqdw65cOcf3H7ub2 Ow4zHGZ4E3NgaRWbNSjGSxR1TkVK2k7J4gJCzbAK5KEgS2Ns7Yk81AGKKlD7nDSGRhQxIAIKQg1p AkVegDG0p1usdPt0ipysnVJUObWvSBsJ3teUdaDZTOgPZk/o+pv+MkkaYVuOfUueSqekKICIiIjI d7I0i7DBQ11C8JM5IxSYaAw2YufGHjuv2sSLn7MNohbD4ZjBKOfBfQcYB8N8mCL3NWUA4yMoA1U9 hjTgmoZQR1SjAltCnEWY2BFCwNaW2Mf0nIN6SOwqssjha0dtLDWBYTlc20AxJ5ATiMA3qL0hUEBU 0jjBR0NHpLjmBr685zC//Cvvp1vBMG+AG0ENG9OE//Crz+MZ526h7o+IkxF1HVGXKZ4RUby+e4Bc nVITk3WajPIlqlFOFk0TvCXENcVgRJJGlL4kihxRFBOqgA0xZelpd0pG/WlG+ZiofZhGK6HO5yjH jigZkoSUMnQxcUSwLUbDAl8PSJOI2KT0xofoNDZg6hZFtcqmhTkOHx5S1SO2bl1g/5G9J9w5c/kP f0gBRERERE5cjgKsg+DwdcCmKTQzKMf0eyu04+0UozFFXNNu1cTFElsXmmzdcjrVOBCFihCPqMIA yoQ4bISkDXGPol6kKqAZnwK2A76L5yCeAucbmKJNaMYYmhAKymFOnLYIHlYHq8xs3Q7dEb4CO7MB TMX48EGyVgadGcJSHxOd2AnEV4exsw3SmQ5lWZMXAB4XAaFJng950ukpl126AZYGk2DiAtQdGI8g 3bjOf8F5qv4+QgPi1pnQt2Cb4Ef4uoudasNwCJEBX+PHOTZtgktgPIashn4Crc2QzOF7S1g/Dck0 jLsQ5xASSJowBrI5aDWgtwfMABrnwsCtnePz5KsHOetJm6gXu7jIcubOU0+6v3kFEBERETm+ygLv wUYxNmtSe8/oSB8XR7Rnt8LSgKTdZDzqkvcHNBsdGAcYjoncFHm7xmOI44woimHYp1hZpYwrXMvQ SDKK4SqhWMWkNTTBmwhsRBRlGFZZWVkia7WJmy2KypGkCTMx5KtLpHGHqpdQrgSaDcg6LSh7hD0l vpyhbvZP6PKHQUJsIaFNZB3GRuChrgAfKG0Tk87AqGLcDdRRoCSnk3ZwtClG63vOSOLvxc0U5HFC XXSwPqce7qYx18a4WUb5YeJmiyibhA4/GuHrkiiuKOs+JDPEWzOqosBXMcnsHH68CsUR7MwcNFvU g4AzBZVZJtRDotEOiqQNjT5FHmhNR1TlEkm0FecyVnq30J49E7LNFIf3K4CIiIiIPKHiDGsmd5+r fIixEe1mA7BUq2OizBJCwNs2wzJQ1wVlfojOjMP7IxTdBZJoE7WHujhMGi2StB2J75AvNQjUJJ0A rQGMPKOlOYydo6JgOFpiKukxM7eJul9RhZQyt5S+oDXbIB32WEkzfDakOVtR+preap8simlNRZjy AI6NJ3T5XWcjmIIqVJSlo/IwmWwPic0YhWUG5X5qX5M12pDFDOse1g1gbHBRY523dmdYLYe88x/u 4M5b7uXnfvxF7DjD0+sG3vHOB7nzwL1s3nwqt92+mzyHLI1Jo5LLLzufhfkWb3rHx3HpKuU4p+EW uPySc7jmBaewoQ0Hd+f8yp9dz+bONl509Vlc/fyzuOGjt/EXf/4ZyngapvdRL2c89cJTOOfsDu94 0/X85P/5ci668mK+cnfK63/tr3nrf32RAoiIiIjIEymEiLoqscYTpWtNk2IM3hC5hK8sOf7jb/13 vnhXTbAL9Ja7PP3CXTz3yqfzv9//bu7Yv0JiNjNa9Wzd2OPf/buL+L6XP5cPfOAeXvdLf8lMy/Kb r/8BLnnOWbz1ug/zJ3/yXpaWp5iZq6lZ4hVXnsb3fv+P8If/822874P3sLChyWh1yPMu2snLrn0e v/87b+Gql8zz67/1MnbfcZCfffU7uPiCS/nt3/khBvYGOsX4xD4A9YBxVOJtBXEBHrJWi/GopPaG Bk2m7BTON2DchLomsWNM2oZRiUvX9+9fVqu057Zyz10j3vrOW3jJVeeyY9dhiqrJp27cy99/6k6e /dwO139oN8HHdDot+t0VHtg7ZPOmFu/54BHi1hK7Tt3KA3fu47r3fpn5zVfxsn9zKf/rv72Nd173 VVy1hwcfvJsLn3kN+w4f4LoP3UVj6hz8XA+/f5mPfuweXve6Z7Fnr+P//S9/zRuf8QO8/vX/g49/ vMZV45Pub14BRERERI5zAimJnAEiQhUIgHEOE1uw8E833cx7P9YijTM2nrJCPrOJf7xpN918wJ2H PCt7YXbhEDNTLezhiKdMTeEO9nnj796MnYF79nve+Ib38rzLXkG5N6e7L+W8iw3zW1rc8ok+v3/d ffzjPX/AvZ/ucdl5F3PargPcd88BPvyxrzLiEzxYz3Dzpwd8+lOL3PzJFW68fyPpzn3Q+jydA02I T+xt1apgyGyDuFjC+ymwXcr+gBhHaZcYeUuoaiBQuj4utkSlgSKnzCpis75//3g4R17tx2UNRkRE m3vQqJifOov59t3E1jK7MKDysHFhE3Obu4y+AotL02w8paLIEi7esp1tc4HuDsd99wBjuPX2+/j1 v7ufK547S6exmQ/949184vYl8nSBijZbdh5gdhMMOxdy0x0301ho8xd/8VRe8dJP8LxXfJg9Dwx4 43+8GuzJty2fAsgJzhijzQhFROQ72rOfdjrnbN9HWXjKUUFaLTJHwelz09z71ftpZqeBW6KbF6Sd is3n7OD9N32OT995P1e+/Bkss/zg3gAAFUFJREFU3jvDLZ/7BDd9agla84y4g8WVnK/uy6l6ZzA1 WiR9YMw2A7/5ixdz+feOCasVn/5ozL337uHTX7yBz90y4Jd/8S95cD+AZeM2R288YMrsBA7pIK1n maOqx4R4wHSnzT0POKZmOvSWDrCUHCayjjKvmWrBTLtFI8rJYsjHQ5aPDLHRYe6+MzA83GZpHMhi OHXnLq57182sLDa57YYh27YuUWN5+9vex3MvvxqI2Xf3iCN7GuTFzbTtLKlvccapM/zsL1zKa379 41x77Vn88A89G4YPKoCIiIiIHC//7MZaCBACq35Mc4vl9J3nYNwBPn/3kDsP72H/6mEOdT2N6D6e /NQm/W6LRgh88d4Rf/7ndxGI+Nj77ib2jsE45w//2z+y87TzSRKYnbXs2DzDkrX0BzOkzR5lVPC/ b9jH3n7Nob2Hefuf38SFF5xO285z4SXz/MLPPYdbbjnA7/7+jSzvr6mKCKKDoN3Y17cqoho1iMqI 5d6In/3Zd+KAHVvPYG5bg7bL6O7rEeWQL3WpBiswgNz3GUyNsSuGn/3p8/jxn3gBf/rOz/K7//dH eccb9nD9x77As54F3/9d5xJFM9z8Uct1/3ADB3d/nohlXvXKXbzy1S/mrju/wA+/6iMcuuduiC7n qec7OqHPpedtwpyk4VUBRERERNavEFg50GbvfYt85bYDNBtAa4rtG+c4c9s5LA4Ch76YcN/N95Hn Lc7aNc8H3nMLn7/1AL/5q5fyjMt30W6Mec+7vsSfveGLjBYPsqk5y4+94pn84A+ew3XveD8//X/d zQ/+1OV84PpbeMNb38PojZ6EFjs2b+GCZ5/HjZ/9ELu2t3n+lZtYmEl4519FbMzmmcnmob4X/AYd p/WsMaCVeF567U6eftGpwJBm2qafr9LZski0eBk2XeaWy+4lz1OCbZLFU2xbOJXTdsV8+rNdnvsM z4bZId9z1RZ2Tl3GFrPA2WddzVOuaXHJrm3gKl5y9UauuBrysed7nr/AFVc2OWvbiC2NM/kPP93j pS+5EIYZG5odfvXnzuWSCzLwCZArgIiIiIgcF8ZACA/1ghgz6Vl40XM38f6/ehV+XJCPDtH3EbNp m3O2L/CFAxnlIMU35imLrax2D3Pa9i285mVP4tynplRhhaTYxpmvvpJrLt9FiKAeF1z4lAXSpQO8 5OnfxfY/PoNnXrmFH3lhwv17uhjfYb61lU0bYmx8F5ec92IaGEwv5vT5Kf7r77yIjQsR1lRQ7gA3 1LFbz0YGX7Q4b/tWzjs94OLBZDPJ4Vbc7OkUK4E4neWScy8mSWbwfoivHVVRk7VGPOPJ8zDqU++p 2DXd5txX7MQfLgjVBdj5HA5mVPF+5rOSV3//eYxHnkYyC9Uy9QMWE3X5pV+8mnx5TL1yiC0LZ/BL vzAP3lMf6uLSk68HTQGEoz28fu3aZx664AF4H2AyHQ5rzTG+PjzUXWwfNpHo4Y8//HUf6fGjj/1L 3vujV+dj/hwiIiInZu4w/yqEHH1fNABH+py+cwZXF9i6RZUYojqAHXN2s0U6XsB1ZsFEYDeDyahW HFHhiItZcPux4yHPOP98oKRcWib2GQyXybI+lzzrCor77uK0LRdz2swAqj74AKYB8dOYe9KDMJwh rAxpm5LLLt8EfpXxoUWysAMaCiDr2vQhzKDGVQPq8RBSB6MWrpiH1TmSTh/fLYmNI4yG+DrgnMF4 D8YxWhnTmMlwLY/zBeFQwKazEJUUS3tJzBRREmHGFWZoyXJD2V3EhC5RZGhnCfSPUA8T0vmc0eJe yFdpNE7BZkMILQWQk/WGiznGCg6Txr75hhfOrxcavp3Hj8WehCskiIjISfZm/HWEEAixZWQP48cj miHF24TBygodl5BsaODMAPoRK0v3MLOwlboaUlRDIns61bggchtozo7oH1nEmmWaU7PQiyFuU5lA NX4f2fbt9BfvJ8syoswxHC3RnLX0F/skjWliW2HSFSgK/BGHjdpErob0yNEtM2SdKvobSIKHyOJC DLWjYpVo2kORgimxrlzbCX2y9DMmx4UxBE9j8ynUq318yImzlFDHUHYJdU4S7QRWIERgV6hHPVzc wsUR1kxBB1gZUtc1zbmYsqxoLHgodpKvDkk3hMnu6ScZtWpFRERkXYcQO0qZKiNm3AzJMCMrZ5gu 57D1Ftxig359AEyHma1nQz6HDXM051N63f1EM0NwLXxd4BopzZkmjAaEcQVNS56tYsJWGMe0pxpE LsAwo5lsZ7xc0J6bJ2ErITTAg7EWaxOgQxUifNzXcVvnXJRBAhR98B0w26mSDdSxoWd6BJ9S+zZU CaGOILQJVUYwGSG0KVb2U8cVtjMCM8Bmc9TWY5slYVwxtpbxOMNFG3DJPHWRYqONVGGG4WAM8SwW BxykKjuEahUGjjSzlMXJ2RegHhARERH5loQAxgQwnkANuMfmRY8OReZfjApo51BaIEALKLuTO8v0 MEDbbwa7DCWQrI1b6DfopEzm97oj2CKlwRBGEdgIMzWAkaNFe/Lj++Jo3IF4MqQqS2PIx2DHkzu2 Ppl8AwuwQpYAeVsnxHoPIKE/GU0fZcAI/B4ygFFCxySAx1kAt5aBhxgHhMl9+iRZ2+n9oWN9hIgE igSTjci8gWgE9dHAY8AvE1mIQgKMMClQNGg4oJqHxjLAZCjgSUg9ICIiIvJNeXgm8N5DsJjHInyI iAKIiIiIyCMJ4WsrVomIKICIiIjI4xA6AGOwVoujiMhxCiC65yEiInISBZCjjQd7dI7Gw3YtFxF5 IgKIDwFdd9bTG4MOhoiIPN5vNoYQwHvWhmBpDoiIPBEBZK3ro9NKaSQRRn0h6+ANITA33T7mHiMi IiKPlaqCoiigrjUUS0SeoACyFjjazZQsdmB05/34MuAD062MZpYoDoqIyOPTaDAWzKQHpCgKgvcK ICLyRAWQh8cQOe7xw0yWQ1zYMM1spwlWR0ZERB57ZeSxUUxNzFcOHGEYKkwZgymAMJkPYgLEAR9y fFkw2QFORORRB5BJj8dqf8yoqCZL8cnxfVOoPRs2z7Ew28YqGoqIyOOhBl8FIHDbbfdTh42Uo0Ug gzrCF4aqsIQCrI2xsYMwVt1E5DEIIGsjrgajgnFZf+0BOX4H0hhmGgnbN89R1bXmgYiIyGMvAHVN HAe+eEfJZ25ZJpqJwDvA4JKMyDUwPgYScA5PqbqJyKMPIEfjRlXVVN4rfqyHA2kNWRxx6dPOwjmL e/gwLGNwaUp0jA8REZFvugEQDJ6aPFje8vYbMVPT1H5IFYbgyrURVxbKAF4Lo4jIYxRAAIw19IY5 vbzQUrzrgAEIgSsvOps4clS1V1FERORxaTbUFXiafOimu3n/jfdjGjEhrfB0oVzB1wW+toTaYYhU NhF5bAJIZC394YjVwRgNwVofQlVz0YVnct6urZNQortOIiLyGDJ8bQGagjHdEv6/P/44y8MGJp3D NlIqk2OdxyZubZl+rZIlIo9RAPHBM8xLVg4skTinXpB1wPsAGH7jx69VMURE5HFoNKz1rocYooqR gxtuHvLmt36G3feVBDtNcA4c4AxrY7ZUOBF5jAKIh/4w50v37sfHET5oyM/xZoyhHoy45qqn8eLL ziWEoPWwRETkMX6z8eBSyFiLI2fwu3/0KW648V76g4i6jqiqajJOKxTgatVMRB6bAHK0y+OeBxfx kUX5Y728MUDIS/7LL72CmU6To53lCiIiIvJo1UAINdR96AMl5NzFIdr8xz/6CL/xhx/gUK9JND8D 1RJhPIZqam0/kBqcB1NBqMDXa50jjq8N7tLH8fgwFfhkzJgWzayPqWeIGhGVqUn8POCosg4kY3zZ x/gOVZqByYnradXwpPx4dL7tmWFHO1Q/f/eDlP0RiVMTd33kD0Ndec45bSu/9VPfzWt/7x34AL7W HSgREXl82NhzuOf5s7fcwX1fWeZHXv5srnn+WaRbhuRL95PaU8F7wiinqgustbgoguAgGAKrKuLx PH6ACZY0grrwWHJqX0EEwXuSusTVAUxK5ArwJXU1wldDojyszfUReQICyFE33babI0e6nLJ5Dq+V l9bHhcQafFHyk6+4gv2Lq/w/f/4+zFoXlebqiIjIY837IS7N6OVw3c2H+Oin/5ZLL57mpdeex3Oe fTYL9kE6nTbRTEZMBMWYqhpijMEYh3VtFfF4GjbAVuDHOAeQU5WTZFLWfaYsFOMhmClcJwXrMDYm tk0MU+DVuJAnOIDUPnD9J77Ea37gKkJviLFKweuBMQbnA6//+Zexca7Da3/vHZNwYgwhBE0JFBGR x+49J0BdjsFBFUXkacaHPrPKTZ++ka0bbuXS85osbJpj06aNtNrZZBgX4JwjiiJG456KeBzZMiLq wMGeZRzAxRmYIXZtdFzA8dGbD3Bo/2HKvse7jDysYmwgCVP4UKiI8q1dM3gUy1OYtcbspeefzs1/ /1vUS30FkHWmrjzxdIsPfuw2fuL1f8n9+44QQiByFu+9blrICRKoT77f+V/2VmpZ7eNxDIKOwTeo yVERETYyFL6cjOexQBlhQoYjwTEGPIGKydR1/88aIKrs8ecyiDLorlggBTPCAC5AxUbmpgrKwSp1 Dc7EeFuR1wFo4BipgCeZ/HgGkKMvYK3ltnf8Guc+aSf1KNdFep3x3hN1mqwsrvIHb/0g1/3Tbdyz Z5HuYKziiIjICSz7+o1pV1IfY+6jcw7WPvfwRlAWx/gqpQ6W0nZP7jDiv1YXayYjrMzD2n3lNwjm UXD4tTXS7Np6R0f/P3mN7+x2YohqqABSPIZgC7B+sjJ1CbWJv3ZnLQTM5MknVN0qYyaLSRyvAOKs pfaen/+hq/mD//RvqXtDBZD1+McQAjZymCji0FKX23fv4VO33M1X7j/IffsWWe4ONYlMjv95unY5 uvuBQ+RlhTEw37a88tktGqnBnAQ9dj5Arwi89eMDloaTVsB0u8Grr72M6XamLRWekPMQkiTi+k9+ iRs+d9faPAXLld/7GlqdabzXoh4ix6EhQ5I2ueF9b2Nx31eBybXxZ77/SiJnNQ/l8XI0KRiD9x4b R3zsU1/mn26566GRUN+Ox2AOiMdaw99e/1le96oXsnV+muA1GX3dnT/GEGpPqAtmmynPu+BMrrj4 SdTGUA1zfFGpD1yOf+Pbe5aLkqte+Tvs3vP/t3d3MXKVdRzHf8/znNmZ2dmXVqyFegEkmogXWpvg jdFoYozEJtJAuDBeEBO96oVQLg2BJiYa03hBQRMi1UTwhQTKxVISQoq8JK1RRFCoYEMDJC42lb7u zu6e5//n4gzbzlp8gZnp7Mz3c7kXmznPOc/L7zwv57iCpI9MJ+26fkabp+JYjL2DSUfPmA78aVEn F0yuoI0zk7rlW9fpo1dsJIAMKIGkqabyj36jp/74imIMCjHpa9/YqU1brlRZluI9GzDIEbCUrdTM hg/rby8cWg0gG6YmtXvnDqlek3PaZx9KPsovmIFRNlmroYk9D+p3z73ygf530ZNf6NL8iVPat/9p fe/b2+VZDGaHWApBLikvLEkuTaSg0KhRMBiCAOJqh9A1i2oulW1XuxiPD2tmk2ype3+WmSsvLsnP LZE/BpE/3JVC0MrKStff2+1zWlw8q1yWzPQDg6qPZgoxynKpxVq967MC5qbFhbbqZZZnY+zZY7Ui aXk5K3S+GphzVnKpvfLBw15PAoi5Sy7dP3dYN9/4JW1uNZRonIf+fUJKkYLA+gjNUSpG+HF1dfeb ac1hHiFUy11TihylPaD7oRQVQ/dDF2NSSoXcnAACDIgpKMaqLqZUdNW9oKCUUtU2jsK1uisOVdsS VKzpfFMRFXvQH/esSw9BOnJsXvt+e1C12ZZyyVQYgB4PCsfk4nzcrp/nEMD/VP9GvHUcsjdMdpEt Fd6jIo+9LLMg6fafPKK//vnvqk1Nvu+NKQAAAABGU28XNXRmjXbc9lOdPHVGqUiUMAD8t6aT1TwA QPs4RmXf0wDiLsUY9Orrb+k7d/xCi2Zyd/YEAQAA4P0MgymCS1XyKfVtVVjPt3WaVRtoHnz8D9p9 18OK05PVef7cRwAAAPwfWM5/KQu/f7MgfTlXxrw6IeQHP39M9+w7oNrGmeqkLAAAAAAXMVyv662P 31bp28GW3tmVvvOHv9J377hPC1Z9iZskCwAAAKwZlMfxWS/U35P1vfoC995fH9RNt96tN+b/pTQ9 KevsDQEAAABQbWMggPQqg7grBOmxZ/+iz9x0px6aO6RitiWlNFYFDQAAAPyHUTMBpLchpJoJOXH6 nG7YdY++ectePf/qm7IUFFOSQpC7MysCAACAMTVcS7D6uSSsGFim68yEuILuf/T3mnvqRW3/wqd1 41ev1Vc+e42aG6akbLKFJZmZQgzVjQgcwAZgtNsBX3PSSBiz6+c5BPCeda6rbRzt1nHo9oCkJM/l v/dPPfiZxSCvwzvfbw+STp9r65ePHtJDB5/TVZdfph1f3qavf3Grrt36ccVmXVpsS8ul5FLOWeYu N68evkAvAIwiyybLprXT0Nmk0ka82vv5a81rlqe6S9lMOZuYJx5EX+VK2WRu3c+nZeVcyiwr8HU0 YGCDRw8uy6VyLrtWy7hcOWflHOV5BDoJH67xrbWXqz6n85tyzlJpMltnAeTC8vXOUb3t9opefu0f euneOX3/3jl94qrL9bmtH9P2z39K2z55pVr1CU22Gor1mlJjQsqm4EaFBEZQzC4VpWI4vzo0Bqlo BDUaYSwG38GkuBJ14YuwGINSs67QqiuQQAbTSbUaqtVqXX9uNFpqNqdUliVfZwYG2zIqW6lma7pa ur/aP0Q1JxtSvSbv45Gx41zuF/a8MZus1VCjltZnADkfan31slKKytl05Ni8jhyb18/2PyNJ2rJp g67ecpk2f2hGV2ya1USRND3VpBMGRrChM7mWyqzjp86ujgP/eSZrz/7TatbDWNR7c+nMsuvEWZN1 SuHt0wv68X0HNDvVEFMgg8kfExOFnjj8UnVPzBU8a+6BvWpNz8qMgQ5wCQaNmqhP6q03j67+6eTZ Bd2+92EVKVaNJ/rYRQeZmWKt0JOHX+5Bjz9k3dm7b5XYjw4AAACMYJ7ROnufxrpbYPStPRFvHKv9 2pcwtH3D8BxyDwDqJS52H0Y+gAAAAABYvyJFAAAAAIAAAgAAAIAAAgAAAAAEEAAAAAAEEAAAAAAg gAAAAAAggAAAAAAggAAAAAAAAQQAAAAAAQQAAAAACCAAAAAACCAAAAAACCAAAAAA0DvvAHPvw6JU F+EfAAAAAElFTkSuQmCC "
       preserveAspectRatio="none"
       height="169.33334"
       width="282.22226" />
    <g
       id="g5337"
       transform="translate(50.800003,-26.760715)">
      <rect
         y="12.699992"
         x="-123.9762"
         height="20.410715"
         width="60.476192"
         id="rect897"
         style="opacity:1;fill:#ff9900;fill-opacity:1;fill-rule:evenodd;stroke:none;stroke-width:1;stroke-linecap:round;stroke-linejoin:round;stroke-miterlimit:4;stroke-dasharray:none;stroke-opacity:1" />
      <text
         id="text5332"
         y="25.399992"
         x="-107.95001"
         style="font-style:normal;font-variant:normal;font-weight:normal;font-stretch:normal;font-size:7.05555534px;line-height:7.25;font-family:Quicksand;-inkscape-font-specification:Quicksand;letter-spacing:0px;word-spacing:0px;fill:#000000;fill-opacity:1;stroke:none;stroke-width:0.26458335"
         xml:space="preserve"><tspan
           style="stroke-width:0.26458335"
           y="25.399992"
           x="-107.95001"
           id="tspan5330"
           sodipodi:role="line">orange</tspan></text>
    </g>
    <g
       id="g5346"
       transform="translate(52.689888,3.8553587)">
      <rect
         y="6.3499913"
         x="-128.88989"
         height="21.544643"
         width="65.389885"
         id="rect899"
         style="opacity:1;fill:#cc99cc;fill-opacity:1;fill-rule:evenodd;stroke:none;stroke-width:1;stroke-linecap:round;stroke-linejoin:round;stroke-miterlimit:4;stroke-dasharray:none;stroke-opacity:1" />
      <text
         id="text5341"
         y="19.049992"
         x="-114.30001"
         style="font-style:normal;font-variant:normal;font-weight:normal;font-stretch:normal;font-size:7.05555534px;line-height:7.25;font-family:Quicksand;-inkscape-font-specification:Quicksand;letter-spacing:0px;word-spacing:0px;fill:#000000;fill-opacity:1;stroke:none;stroke-width:0.26458335"
         xml:space="preserve"><tspan
           style="stroke-width:0.26458335"
           y="19.049992"
           x="-114.30001"
           id="tspan5339"
           sodipodi:role="line">purple</tspan></text>
    </g>
    <g
       id="g5363"
       transform="translate(-44.450003,-44.450002)">
      <rect
         y="38.099995"
         x="-121.33036"
         height="19.050001"
         width="57.830357"
         id="rect895"
         style="opacity:1;fill:#9999cc;fill-opacity:1;fill-rule:evenodd;stroke:none;stroke-width:0.88328117;stroke-linecap:round;stroke-linejoin:round;stroke-miterlimit:4;stroke-dasharray:none;stroke-opacity:1" />
      <text
         id="text5350"
         y="50.799992"
         x="-114.30001"
         style="font-style:normal;font-variant:normal;font-weight:normal;font-stretch:normal;font-size:7.05555534px;line-height:7.25;font-family:Quicksand;-inkscape-font-specification:Quicksand;letter-spacing:0px;word-spacing:0px;fill:#000000;fill-opacity:1;stroke:none;stroke-width:0.26458335"
         xml:space="preserve"><tspan
           style="stroke-width:0.26458335"
           y="50.799992"
           x="-114.30001"
           id="tspan5348"
           sodipodi:role="line">grey blue</tspan></text>
    </g>
    <g
       id="g5372"
       transform="translate(50.800003)">
      <rect
         y="61.458923"
         x="-127.37798"
         height="14.741072"
         width="63.877979"
         id="rect901"
         style="opacity:1;fill:#cc6666;fill-opacity:1;fill-rule:evenodd;stroke:none;stroke-width:1;stroke-linecap:round;stroke-linejoin:round;stroke-miterlimit:4;stroke-dasharray:none;stroke-opacity:1" />
      <text
         id="text5367"
         y="69.849991"
         x="-114.30001"
         style="font-style:normal;font-variant:normal;font-weight:normal;font-stretch:normal;font-size:7.05555534px;line-height:7.25;font-family:Quicksand;-inkscape-font-specification:Quicksand;letter-spacing:0px;word-spacing:0px;fill:#000000;fill-opacity:1;stroke:none;stroke-width:0.26458335"
         xml:space="preserve"><tspan
           style="stroke-width:0.26458335"
           y="69.849991"
           x="-114.30001"
           id="tspan5365"
           sodipodi:role="line">brown red</tspan></text>
    </g>
    <g
       id="g5381"
       transform="translate(44.449995,-6.3499977)">
      <rect
         y="88.899994"
         x="-120.95238"
         height="19.050003"
         width="57.452381"
         id="rect903"
         style="opacity:1;fill:#ffcc99;fill-opacity:1;fill-rule:evenodd;stroke:none;stroke-width:0.88741201;stroke-linecap:round;stroke-linejoin:round;stroke-miterlimit:4;stroke-dasharray:none;stroke-opacity:1" />
      <text
         id="text5376"
         y="101.59999"
         x="-107.95001"
         style="font-style:normal;font-variant:normal;font-weight:normal;font-stretch:normal;font-size:7.05555534px;line-height:7.25;font-family:Quicksand;-inkscape-font-specification:Quicksand;letter-spacing:0px;word-spacing:0px;fill:#000000;fill-opacity:1;stroke:none;stroke-width:0.26458335"
         xml:space="preserve"><tspan
           style="stroke-width:0.26458335"
           y="101.59999"
           x="-107.95001"
           id="tspan5374"
           sodipodi:role="line">beige</tspan></text>
    </g>
    <g
       id="g5413"
       transform="translate(44.449995,-69.850005)">
      <rect
         y="107.95"
         x="-120.95238"
         height="19.050003"
         width="57.452381"
         id="rect903-5"
         style="opacity:1;fill:#9999ff;fill-opacity:1;fill-rule:evenodd;stroke:none;stroke-width:0.88741201;stroke-linecap:round;stroke-linejoin:round;stroke-miterlimit:4;stroke-dasharray:none;stroke-opacity:1" />
      <text
         id="text5376-4"
         y="120.64999"
         x="-107.95002"
         style="font-style:normal;font-variant:normal;font-weight:normal;font-stretch:normal;font-size:7.05555534px;line-height:7.25;font-family:Quicksand;-inkscape-font-specification:Quicksand;letter-spacing:0px;word-spacing:0px;fill:#000000;fill-opacity:1;stroke:none;stroke-width:0.26458335"
         xml:space="preserve"><tspan
           style="stroke-width:0.26458335"
           y="120.64999"
           x="-107.95002"
           id="tspan5374-5"
           sodipodi:role="line">blue</tspan></text>
    </g>
    <g
       style="display:inline;opacity:1"
       id="g5363-2"
       transform="translate(-44.450003,-12.700002)">
      <rect
         y="38.099995"
         x="-121.33036"
         height="19.050001"
         width="57.830357"
         id="rect895-9"
         style="opacity:1;fill:#ff9966;fill-opacity:1;fill-rule:evenodd;stroke:none;stroke-width:0.88328117;stroke-linecap:round;stroke-linejoin:round;stroke-miterlimit:4;stroke-dasharray:none;stroke-opacity:1" />
      <text
         id="text5350-9"
         y="50.799992"
         x="-114.30001"
         style="font-style:normal;font-variant:normal;font-weight:normal;font-stretch:normal;font-size:7.05555534px;line-height:7.25;font-family:Quicksand;-inkscape-font-specification:Quicksand;letter-spacing:0px;word-spacing:0px;fill:#000000;fill-opacity:1;stroke:none;stroke-width:0.26458335"
         xml:space="preserve"><tspan
           style="stroke-width:0.26458335"
           y="50.799992"
           x="-114.30001"
           id="tspan5348-2"
           sodipodi:role="line">peach</tspan></text>
    </g>
    <g
       style="display:inline;opacity:1"
       id="g5363-2-7"
       transform="translate(-44.450003,19.05)">
      <rect
         y="38.099995"
         x="-121.33036"
         height="19.050001"
         width="57.830357"
         id="rect895-9-3"
         style="opacity:1;fill:#cc6699;fill-opacity:1;fill-rule:evenodd;stroke:none;stroke-width:0.88328117;stroke-linecap:round;stroke-linejoin:round;stroke-miterlimit:4;stroke-dasharray:none;stroke-opacity:1" />
      <text
         id="text5350-9-2"
         y="50.799992"
         x="-114.30001"
         style="font-style:normal;font-variant:normal;font-weight:normal;font-stretch:normal;font-size:7.05555534px;line-height:7.25;font-family:Quicksand;-inkscape-font-specification:Quicksand;letter-spacing:0px;word-spacing:0px;fill:#000000;fill-opacity:1;stroke:none;stroke-width:0.26458335"
         xml:space="preserve"><tspan
           style="stroke-width:0.26458335"
           y="50.799992"
           x="-114.30001"
           id="tspan5348-2-3"
           sodipodi:role="line">pink</tspan></text>
    </g>
  </g>
  <g
     inkscape:groupmode="layer"
     id="layer4"
     inkscape:label="static components"
     style="display:inline">
    <text
       xml:space="preserve"
       style="font-style:normal;font-variant:normal;font-weight:normal;font-stretch:normal;font-size:14.11111164px;line-height:7.25;font-family:'Swiss911 XCm BT';-inkscape-font-specification:'Swiss911 XCm BT';letter-spacing:0px;word-spacing:0px;display:inline;fill:#cc6666;fill-opacity:1;stroke:none;stroke-width:0.26458335"
       x="185.19733"
       y="12.472615"
       id="text846"><tspan
         sodipodi:role="line"
         id="tspan844"
         x="185.19733"
         y="12.472615"
         style="font-style:normal;font-variant:normal;font-weight:normal;font-stretch:normal;font-size:14.11111164px;font-family:'Swiss911 XCm BT';-inkscape-font-specification:'Swiss911 XCm BT';fill:#cc6666;fill-opacity:1;stroke-width:0.26458335">SYSTEM EVENT VIEW</tspan></text>
    <text
       xml:space="preserve"
       style="font-style:normal;font-variant:normal;font-weight:normal;font-stretch:normal;font-size:5.64444447px;line-height:7.25;font-family:'Swiss911 UCm BT';-inkscape-font-specification:'Swiss911 UCm BT';letter-spacing:0px;word-spacing:0px;display:inline;fill:#ffffff;fill-opacity:1;stroke:none;stroke-width:0.26458335"
       x="215.16414"
       y="18.964554"
       id="text850"><tspan
         sodipodi:role="line"
         id="tspan848"
         x="215.16414"
         y="18.964554"
         style="font-style:normal;font-variant:normal;font-weight:normal;font-stretch:normal;font-size:5.64444447px;font-family:'Swiss911 UCm BT';-inkscape-font-specification:'Swiss911 UCm BT';fill:#ffffff;fill-opacity:1;stroke-width:0.26458335">lcars database access    -    screen 221</tspan></text>
    <path
       style="display:inline;opacity:1;fill:#fdcc99;fill-opacity:1;fill-rule:evenodd;stroke:none;stroke-width:1;stroke-linecap:round;stroke-linejoin:round;stroke-miterlimit:4;stroke-dasharray:none;stroke-opacity:1"
       d="M 303.74168,75.141665 H 323.85002 C 328.08335,75.141665 330.20002,74.083325 330.20002,69.849995 V 67.733325 H 354.54169 V 76.199995 C 354.54169,82.549995 349.25002,87.841665 342.90002,87.841665 H 303.74168 Z"
       id="path1072"
       inkscape:connector-curvature="0" />
    <path
       style="display:inline;opacity:1;fill:#fdcc99;fill-opacity:1;fill-rule:evenodd;stroke:none;stroke-width:1;stroke-linecap:round;stroke-linejoin:round;stroke-miterlimit:4;stroke-dasharray:none;stroke-opacity:1"
       d="M 304.80002,66.674994 V 64.558324 C 304.80002,60.324994 302.68335,59.266664 298.45002,59.266664 H 292.10002 V 50.799994 H 317.50002 C 323.85002,50.799994 329.14169,58.208324 329.14169,64.558324 V 66.674994 Z"
       id="rect4718"
       inkscape:connector-curvature="0" />
    <g
       id="g197"
       transform="rotate(180,41.275002,120.65001)">
      <rect
         y="176.34999"
         x="77.258331"
         height="8.4666672"
         width="5.291667"
         id="rect4993"
         style="display:inline;opacity:1;fill:#fdcc99;fill-opacity:1;fill-rule:evenodd;stroke:none;stroke-width:1;stroke-linecap:round;stroke-linejoin:round;stroke-miterlimit:4;stroke-dasharray:none;stroke-opacity:1"
         transform="translate(0,-93.799985)" />
      <rect
         y="214.45"
         x="77.258339"
         height="8.4666672"
         width="5.291667"
         id="rect4991"
         style="display:inline;opacity:1;fill:#fdcc99;fill-opacity:1;fill-rule:evenodd;stroke:none;stroke-width:1;stroke-linecap:round;stroke-linejoin:round;stroke-miterlimit:4;stroke-dasharray:none;stroke-opacity:1"
         transform="translate(0,-93.799985)" />
      <rect
         y="185.87498"
         x="77.258331"
         height="8.4666672"
         width="5.291667"
         id="rect4995"
         style="display:inline;opacity:1;fill:#c46161;fill-opacity:1;fill-rule:evenodd;stroke:none;stroke-width:1;stroke-linecap:round;stroke-linejoin:round;stroke-miterlimit:4;stroke-dasharray:none;stroke-opacity:1"
         transform="translate(0,-93.799985)" />
      <rect
         y="195.39999"
         x="77.258331"
         height="8.4666672"
         width="5.291667"
         id="rect4997"
         style="display:inline;opacity:1;fill:#fdcc99;fill-opacity:1;fill-rule:evenodd;stroke:none;stroke-width:1;stroke-linecap:round;stroke-linejoin:round;stroke-miterlimit:4;stroke-dasharray:none;stroke-opacity:1"
         transform="translate(0,-93.799985)" />
      <rect
         y="195.39999"
         x="70.90834"
         height="8.4666672"
         width="5.291667"
         id="rect4999"
         style="display:inline;opacity:1;fill:#9bbde4;fill-opacity:1;fill-rule:evenodd;stroke:none;stroke-width:1;stroke-linecap:round;stroke-linejoin:round;stroke-miterlimit:4;stroke-dasharray:none;stroke-opacity:1"
         transform="translate(0,-93.799985)" />
      <rect
         y="204.92499"
         x="77.258331"
         height="8.4666672"
         width="5.291667"
         id="rect5001"
         style="display:inline;opacity:1;fill:#9bbde4;fill-opacity:1;fill-rule:evenodd;stroke:none;stroke-width:1;stroke-linecap:round;stroke-linejoin:round;stroke-miterlimit:4;stroke-dasharray:none;stroke-opacity:1"
         transform="translate(0,-93.799985)" />
      <rect
         y="233.5"
         x="70.90834"
         height="8.4666672"
         width="5.291667"
         id="rect5003"
         style="display:inline;opacity:1;fill:#9bbde4;fill-opacity:1;fill-rule:evenodd;stroke:none;stroke-width:1;stroke-linecap:round;stroke-linejoin:round;stroke-miterlimit:4;stroke-dasharray:none;stroke-opacity:1"
         transform="translate(0,-93.799985)" />
      <rect
         y="233.5"
         x="77.258331"
         height="8.4666672"
         width="5.291667"
         id="rect5005"
         style="display:inline;opacity:1;fill:#9bbde4;fill-opacity:1;fill-rule:evenodd;stroke:none;stroke-width:1;stroke-linecap:round;stroke-linejoin:round;stroke-miterlimit:4;stroke-dasharray:none;stroke-opacity:1"
         transform="translate(0,-93.799985)" />
      <rect
         y="223.97499"
         x="70.90834"
         height="8.4666672"
         width="5.291667"
         id="rect5007"
         style="display:inline;opacity:1;fill:#c46161;fill-opacity:1;fill-rule:evenodd;stroke:none;stroke-width:1;stroke-linecap:round;stroke-linejoin:round;stroke-miterlimit:4;stroke-dasharray:none;stroke-opacity:1"
         transform="translate(0,-93.799985)" />
    </g>
    <path
       style="display:inline;opacity:1;fill:#fdcc99;fill-opacity:1;fill-rule:evenodd;stroke:none;stroke-width:1;stroke-linecap:round;stroke-linejoin:round;stroke-miterlimit:4;stroke-dasharray:none;stroke-opacity:1"
       d="M 323.85002,95.249998 H 343.95836 C 348.19169,95.249998 350.30836,94.191658 350.30836,89.958328 V 87.841658 H 374.65003 V 96.308328 C 374.65003,102.65833 369.35836,107.95 363.00836,107.95 H 323.85002 Z"
       id="path1072-8"
       inkscape:connector-curvature="0" />
    <path
       style="display:inline;opacity:1;fill:#75798a;fill-opacity:1;fill-rule:evenodd;stroke:none;stroke-width:1;stroke-linecap:round;stroke-linejoin:round;stroke-miterlimit:4;stroke-dasharray:none;stroke-opacity:1"
       d="M 6.35,19.049996 V 21.166666 C 6.35,25.399996 4.23333,26.458326 0,26.458326 L -1.3e-5,26.458328 V 34.924998 L 31.749999,34.924992 C 38.1,34.924991 43.391669,27.516662 43.391669,21.166662 V 19.049992 Z"
       id="rect4718-7"
       inkscape:connector-curvature="0"
       sodipodi:nodetypes="cssccsscc" />
    <rect
       style="opacity:1;fill:#75798a;fill-opacity:1;fill-rule:evenodd;stroke:none;stroke-width:0.92122954;stroke-linecap:round;stroke-linejoin:round;stroke-miterlimit:4;stroke-dasharray:none;stroke-opacity:1"
       id="rect4184"
       width="37.041668"
       height="4.2333336"
       x="6.3500009"
       y="-9.0499998e-06" />
  </g>
  <g
     inkscape:label="dynamic components"
     inkscape:groupmode="layer"
     id="layer1"
     transform="translate(0,-93.799984)"
     style="display:inline">
    <path
       style="opacity:1;fill:#c46161;fill-opacity:1;fill-rule:evenodd;stroke:none;stroke-width:0.83130014;stroke-linecap:round;stroke-linejoin:round;stroke-miterlimit:4;stroke-dasharray:none;stroke-opacity:1"
       d="M 307.97501,221.85831 H 357.71669 V 230.32498 L 307.97501,230.32497 Z"
       id="rect954-0"
       inkscape:connector-curvature="0"
       sodipodi:nodetypes="ccccc" />
    <text
       xml:space="preserve"
       style="font-style:normal;font-variant:normal;font-weight:normal;font-stretch:normal;font-size:7.05555582px;line-height:7.25;font-family:'Swiss911 UCm BT';-inkscape-font-specification:'Swiss911 UCm BT';letter-spacing:0px;word-spacing:0px;fill:#000000;fill-opacity:1;stroke:none;stroke-width:0.26458335"
       x="303.60526"
       y="238.29764"
       id="text4779"><tspan
         sodipodi:role="line"
         id="tspan4777"
         x="303.60526"
         y="238.29764"
         style="font-style:normal;font-variant:normal;font-weight:normal;font-stretch:normal;font-size:7.05555582px;font-family:'Swiss911 UCm BT';-inkscape-font-specification:'Swiss911 UCm BT';stroke-width:0.26458335">2</tspan></text>
    <path
       style="display:inline;opacity:1;fill:#9bbde4;fill-opacity:1;fill-rule:evenodd;stroke:none;stroke-width:0.8313002;stroke-linecap:round;stroke-linejoin:round;stroke-miterlimit:4;stroke-dasharray:none;stroke-opacity:1"
       d="M 307.97501,231.38331 H 357.71669 V 239.84998 L 307.97501,239.84997 Z"
       id="rect954-0-4"
       inkscape:connector-curvature="0"
       sodipodi:nodetypes="ccccc" />
    <path
       style="display:inline;opacity:1;fill:#9bbde4;fill-opacity:1;fill-rule:evenodd;stroke:none;stroke-width:0.8313002;stroke-linecap:round;stroke-linejoin:round;stroke-miterlimit:4;stroke-dasharray:none;stroke-opacity:1"
       d="M 307.97501,240.90831 H 357.71669 V 249.37498 L 307.97501,249.37497 Z"
       id="rect954-0-7"
       inkscape:connector-curvature="0"
       sodipodi:nodetypes="ccccc" />
    <rect
       style="display:inline;opacity:1;fill:#9bbde4;fill-opacity:1;fill-rule:evenodd;stroke:none;stroke-width:1;stroke-linecap:round;stroke-linejoin:round;stroke-miterlimit:4;stroke-dasharray:none;stroke-opacity:1"
       id="rect5262-6"
       width="17.991667"
       height="8.4666672"
       x="358.77502"
       y="240.90831" />
    <path
       style="display:inline;opacity:1;fill:#9bbde4;fill-opacity:1;fill-rule:evenodd;stroke:none;stroke-width:0.8313002;stroke-linecap:round;stroke-linejoin:round;stroke-miterlimit:4;stroke-dasharray:none;stroke-opacity:1"
       d="M 307.975,250.43331 H 357.71669 V 258.89998 L 307.975,258.89997 Z"
       id="rect954-0-49"
       inkscape:connector-curvature="0"
       sodipodi:nodetypes="ccccc" />
    <rect
       style="display:inline;opacity:1;fill:#9bbde4;fill-opacity:1;fill-rule:evenodd;stroke:none;stroke-width:1;stroke-linecap:round;stroke-linejoin:round;stroke-miterlimit:4;stroke-dasharray:none;stroke-opacity:1"
       id="rect5262-8"
       width="17.991667"
       height="8.4666672"
       x="358.77502"
       y="250.43332" />
    <path
       style="display:inline;opacity:1;fill:#9bbde4;fill-opacity:1;fill-rule:evenodd;stroke:none;stroke-width:0.8313002;stroke-linecap:round;stroke-linejoin:round;stroke-miterlimit:4;stroke-dasharray:none;stroke-opacity:1"
       d="M 307.975,259.95831 H 357.71669 V 268.42498 L 307.975,268.42497 Z"
       id="rect954-0-44"
       inkscape:connector-curvature="0"
       sodipodi:nodetypes="ccccc" />
    <rect
       style="display:inline;opacity:1;fill:#9bbde4;fill-opacity:1;fill-rule:evenodd;stroke:none;stroke-width:1;stroke-linecap:round;stroke-linejoin:round;stroke-miterlimit:4;stroke-dasharray:none;stroke-opacity:1"
       id="rect5262-66"
       width="17.991667"
       height="8.4666672"
       x="358.77502"
       y="259.95831" />
    <path
       style="display:inline;opacity:1;fill:#9bbde4;fill-opacity:1;fill-rule:evenodd;stroke:none;stroke-width:0.8313002;stroke-linecap:round;stroke-linejoin:round;stroke-miterlimit:4;stroke-dasharray:none;stroke-opacity:1"
       d="M 307.975,269.48332 H 357.71669 V 277.94998 L 307.975,277.94997 Z"
       id="rect954-0-6"
       inkscape:connector-curvature="0"
       sodipodi:nodetypes="ccccc" />
    <rect
       style="display:inline;opacity:1;fill:#9bbde4;fill-opacity:1;fill-rule:evenodd;stroke:none;stroke-width:1;stroke-linecap:round;stroke-linejoin:round;stroke-miterlimit:4;stroke-dasharray:none;stroke-opacity:1"
       id="rect5262-3"
       width="17.991667"
       height="8.4666672"
       x="358.77502"
       y="269.48331" />
    <path
       style="display:inline;opacity:1;fill:#9bbde4;fill-opacity:1;fill-rule:evenodd;stroke:none;stroke-width:0.8313002;stroke-linecap:round;stroke-linejoin:round;stroke-miterlimit:4;stroke-dasharray:none;stroke-opacity:1"
       d="M 307.975,279.00832 H 357.71669 V 287.47499 L 307.975,287.47498 Z"
       id="rect954-0-8"
       inkscape:connector-curvature="0"
       sodipodi:nodetypes="ccccc" />
    <rect
       style="display:inline;opacity:1;fill:#9bbde4;fill-opacity:1;fill-rule:evenodd;stroke:none;stroke-width:1;stroke-linecap:round;stroke-linejoin:round;stroke-miterlimit:4;stroke-dasharray:none;stroke-opacity:1"
       id="rect5262-34"
       width="17.991667"
       height="8.4666672"
       x="358.77502"
       y="279.0083" />
    <path
       style="display:inline;opacity:1;fill:#9bbde4;fill-opacity:1;fill-rule:evenodd;stroke:none;stroke-width:0.8313002;stroke-linecap:round;stroke-linejoin:round;stroke-miterlimit:4;stroke-dasharray:none;stroke-opacity:1"
       d="M 307.97501,288.53332 H 357.71669 V 296.99999 L 307.97501,296.99998 Z"
       id="rect954-0-5"
       inkscape:connector-curvature="0"
       sodipodi:nodetypes="ccccc" />
    <rect
       style="display:inline;opacity:1;fill:#9bbde4;fill-opacity:1;fill-rule:evenodd;stroke:none;stroke-width:1;stroke-linecap:round;stroke-linejoin:round;stroke-miterlimit:4;stroke-dasharray:none;stroke-opacity:1"
       id="rect5262-5"
       width="17.991667"
       height="8.4666672"
       x="358.77502"
       y="288.53329" />
    <path
       style="display:inline;opacity:1;fill:#9bbde4;fill-opacity:1;fill-rule:evenodd;stroke:none;stroke-width:0.8313002;stroke-linecap:round;stroke-linejoin:round;stroke-miterlimit:4;stroke-dasharray:none;stroke-opacity:1"
       d="M 307.975,298.05832 H 357.71669 V 306.52498 L 307.975,306.52497 Z"
       id="rect954-0-9"
       inkscape:connector-curvature="0"
       sodipodi:nodetypes="ccccc" />
    <text
       xml:space="preserve"
       style="font-style:normal;font-variant:normal;font-weight:normal;font-stretch:normal;font-size:7.05555534px;line-height:7.25;font-family:'Swiss911 UCm BT';-inkscape-font-specification:'Swiss911 UCm BT';letter-spacing:0px;word-spacing:0px;fill:#000000;fill-opacity:1;stroke:none;stroke-width:0.26458335"
       x="311.04321"
       y="237.87527"
       id="text4865"><tspan
         sodipodi:role="line"
         id="tspan4863"
         x="311.04321"
         y="237.87527"
         style="font-style:normal;font-variant:normal;font-weight:normal;font-stretch:normal;font-family:'Swiss911 UCm BT';-inkscape-font-specification:'Swiss911 UCm BT';stroke-width:0.26458335">Player name</tspan></text>
    <text
       xml:space="preserve"
       style="font-style:normal;font-variant:normal;font-weight:normal;font-stretch:normal;font-size:7.05555582px;line-height:7.25;font-family:'Swiss911 UCm BT';-inkscape-font-specification:'Swiss911 UCm BT';letter-spacing:0px;word-spacing:0px;display:inline;fill:#000000;fill-opacity:1;stroke:none;stroke-width:0.26458335"
       x="303.60526"
       y="228.77261"
       id="text4779-9"><tspan
         sodipodi:role="line"
         id="tspan4777-7"
         x="303.60526"
         y="228.77261"
         style="font-style:normal;font-variant:normal;font-weight:normal;font-stretch:normal;font-size:7.05555582px;font-family:'Swiss911 UCm BT';-inkscape-font-specification:'Swiss911 UCm BT';stroke-width:0.26458335">1</tspan></text>
    <text
       xml:space="preserve"
       style="font-style:normal;font-variant:normal;font-weight:normal;font-stretch:normal;font-size:7.05555534px;line-height:7.25;font-family:'Swiss911 UCm BT';-inkscape-font-specification:'Swiss911 UCm BT';letter-spacing:0px;word-spacing:0px;display:inline;fill:#000000;fill-opacity:1;stroke:none;stroke-width:0.26458335"
       x="311.04321"
       y="228.35025"
       id="text4865-1"><tspan
         sodipodi:role="line"
         id="tspan4863-9"
         x="311.04321"
         y="228.35025"
         style="font-style:normal;font-variant:normal;font-weight:normal;font-stretch:normal;font-family:'Swiss911 UCm BT';-inkscape-font-specification:'Swiss911 UCm BT';stroke-width:0.26458335">Sjoerd</tspan></text>
    <text
       xml:space="preserve"
       style="font-style:normal;font-variant:normal;font-weight:normal;font-stretch:normal;font-size:7.05555534px;line-height:7.25;font-family:'Swiss911 UCm BT';-inkscape-font-specification:'Swiss911 UCm BT';letter-spacing:0px;word-spacing:0px;display:inline;fill:#000000;fill-opacity:1;stroke:none;stroke-width:0.26458335"
       x="310.93909"
       y="247.43463"
       id="text4865-2"><tspan
         sodipodi:role="line"
         id="tspan4863-5"
         x="310.93909"
         y="247.43463"
         style="font-style:normal;font-variant:normal;font-weight:normal;font-stretch:normal;font-family:'Swiss911 UCm BT';-inkscape-font-specification:'Swiss911 UCm BT';stroke-width:0.26458335">Player name</tspan></text>
    <text
       xml:space="preserve"
       style="font-style:normal;font-variant:normal;font-weight:normal;font-stretch:normal;font-size:7.05555534px;line-height:7.25;font-family:'Swiss911 UCm BT';-inkscape-font-specification:'Swiss911 UCm BT';letter-spacing:0px;word-spacing:0px;display:inline;fill:#000000;fill-opacity:1;stroke:none;stroke-width:0.26458335"
       x="310.86688"
       y="256.72226"
       id="text4865-2-1"><tspan
         sodipodi:role="line"
         id="tspan4863-5-5"
         x="310.86688"
         y="256.72226"
         style="font-style:normal;font-variant:normal;font-weight:normal;font-stretch:normal;font-family:'Swiss911 UCm BT';-inkscape-font-specification:'Swiss911 UCm BT';stroke-width:0.26458335">Player name</tspan></text>
    <text
       xml:space="preserve"
       style="font-style:normal;font-variant:normal;font-weight:normal;font-stretch:normal;font-size:7.05555534px;line-height:7.25;font-family:'Swiss911 UCm BT';-inkscape-font-specification:'Swiss911 UCm BT';letter-spacing:0px;word-spacing:0px;display:inline;fill:#000000;fill-opacity:1;stroke:none;stroke-width:0.26458335"
       x="310.80005"
       y="266.67804"
       id="text4865-2-0"><tspan
         sodipodi:role="line"
         id="tspan4863-5-7"
         x="310.80005"
         y="266.67804"
         style="font-style:normal;font-variant:normal;font-weight:normal;font-stretch:normal;font-family:'Swiss911 UCm BT';-inkscape-font-specification:'Swiss911 UCm BT';stroke-width:0.26458335">Player name</tspan></text>
    <text
       xml:space="preserve"
       style="font-style:normal;font-variant:normal;font-weight:normal;font-stretch:normal;font-size:7.05555534px;line-height:7.25;font-family:'Swiss911 UCm BT';-inkscape-font-specification:'Swiss911 UCm BT';letter-spacing:0px;word-spacing:0px;display:inline;fill:#000000;fill-opacity:1;stroke:none;stroke-width:0.26458335"
       x="310.46597"
       y="276.09927"
       id="text4865-2-01"><tspan
         sodipodi:role="line"
         id="tspan4863-5-76"
         x="310.46597"
         y="276.09927"
         style="font-style:normal;font-variant:normal;font-weight:normal;font-stretch:normal;font-family:'Swiss911 UCm BT';-inkscape-font-specification:'Swiss911 UCm BT';stroke-width:0.26458335">Player name</tspan></text>
    <rect
       style="display:inline;opacity:1;fill:#9bbde4;fill-opacity:1;fill-rule:evenodd;stroke:none;stroke-width:1;stroke-linecap:round;stroke-linejoin:round;stroke-miterlimit:4;stroke-dasharray:none;stroke-opacity:1"
       id="rect5262-56"
       width="17.991667"
       height="8.4666672"
       x="358.77502"
       y="298.05832" />
    <path
       style="display:inline;opacity:1;fill:#9bbde4;fill-opacity:1;fill-rule:evenodd;stroke:none;stroke-width:0.8313002;stroke-linecap:round;stroke-linejoin:round;stroke-miterlimit:4;stroke-dasharray:none;stroke-opacity:1"
       d="M 307.975,307.58332 H 357.71669 V 316.04998 L 307.975,316.04997 Z"
       id="rect954-0-9-6"
       inkscape:connector-curvature="0"
       sodipodi:nodetypes="ccccc" />
    <path
       style="opacity:1;fill:#c46161;fill-opacity:1;fill-rule:evenodd;stroke:none;stroke-width:1;stroke-linecap:round;stroke-linejoin:round;stroke-miterlimit:4;stroke-dasharray:none;stroke-opacity:1"
       d="M 377.82502,221.8583 H 402.16669 V 230.32497 H 377.82502 Z"
       id="rect5032"
       inkscape:connector-curvature="0" />
    <rect
       style="display:inline;opacity:1;fill:#9bbde4;fill-opacity:1;fill-rule:evenodd;stroke:none;stroke-width:1;stroke-linecap:round;stroke-linejoin:round;stroke-miterlimit:4;stroke-dasharray:none;stroke-opacity:1"
       id="rect5262-1"
       width="17.991667"
       height="8.4666672"
       x="358.77502"
       y="307.58331" />
    <path
       inkscape:connector-curvature="0"
       style="display:inline;opacity:1;fill:#fdcc99;fill-opacity:1;fill-rule:evenodd;stroke:none;stroke-width:1;stroke-linecap:round;stroke-linejoin:round;stroke-miterlimit:4;stroke-dasharray:none;stroke-opacity:1"
       d="M 377.82502,231.38331 H 402.16669 V 239.84998 H 377.82502 Z"
       id="rect5032-0" />
    <path
       inkscape:connector-curvature="0"
       style="display:inline;opacity:1;fill:#fdcc99;fill-opacity:1;fill-rule:evenodd;stroke:none;stroke-width:1;stroke-linecap:round;stroke-linejoin:round;stroke-miterlimit:4;stroke-dasharray:none;stroke-opacity:1"
       d="M 377.82502,240.90831 H 402.16669 V 249.37498 H 377.82502 Z"
       id="rect5032-3" />
    <path
       inkscape:connector-curvature="0"
       style="display:inline;opacity:1;fill:#fdcc99;fill-opacity:1;fill-rule:evenodd;stroke:none;stroke-width:1;stroke-linecap:round;stroke-linejoin:round;stroke-miterlimit:4;stroke-dasharray:none;stroke-opacity:1"
       d="M 377.82502,250.43331 H 402.16669 V 258.89998 H 377.82502 Z"
       id="rect5032-35" />
    <path
       inkscape:connector-curvature="0"
       style="display:inline;opacity:1;fill:#c46161;fill-opacity:1;fill-rule:evenodd;stroke:none;stroke-width:1;stroke-linecap:round;stroke-linejoin:round;stroke-miterlimit:4;stroke-dasharray:none;stroke-opacity:1"
       d="M 377.82502,279.00831 H 402.16669 V 287.47498 H 377.82502 Z"
       id="rect5032-1" />
    <path
       inkscape:connector-curvature="0"
       style="display:inline;opacity:1;fill:#9bbde4;fill-opacity:1;fill-rule:evenodd;stroke:none;stroke-width:1;stroke-linecap:round;stroke-linejoin:round;stroke-miterlimit:4;stroke-dasharray:none;stroke-opacity:1"
       d="M 377.82502,259.95831 H 402.16669 V 268.42498 H 377.82502 Z"
       id="rect5032-00" />
    <path
       inkscape:connector-curvature="0"
       style="display:inline;opacity:1;fill:#ffffff;fill-opacity:1;fill-rule:evenodd;stroke:none;stroke-width:1;stroke-linecap:round;stroke-linejoin:round;stroke-miterlimit:4;stroke-dasharray:none;stroke-opacity:1"
       d="M 377.82502,269.48331 H 402.16669 V 277.94998 H 377.82502 Z"
       id="rect5032-9" />
    <path
       inkscape:connector-curvature="0"
       style="display:inline;opacity:1;fill:#fdcc99;fill-opacity:1;fill-rule:evenodd;stroke:none;stroke-width:1;stroke-linecap:round;stroke-linejoin:round;stroke-miterlimit:4;stroke-dasharray:none;stroke-opacity:1"
       d="M 377.82502,288.53331 H 402.16669 V 296.99998 H 377.82502 Z"
       id="rect5032-5" />
    <path
       inkscape:connector-curvature="0"
       style="display:inline;opacity:1;fill:#c46161;fill-opacity:1;fill-rule:evenodd;stroke:none;stroke-width:1;stroke-linecap:round;stroke-linejoin:round;stroke-miterlimit:4;stroke-dasharray:none;stroke-opacity:1"
       d="M 377.82502,298.05831 H 402.16669 V 306.52497 H 377.82502 Z"
       id="rect5032-98" />
    <path
       inkscape:connector-curvature="0"
       style="display:inline;opacity:1;fill:#c46161;fill-opacity:1;fill-rule:evenodd;stroke:none;stroke-width:1;stroke-linecap:round;stroke-linejoin:round;stroke-miterlimit:4;stroke-dasharray:none;stroke-opacity:1"
       d="M 377.82502,307.58332 H 402.16669 V 316.04998 H 377.82502 Z"
       id="rect5032-2" />
    <rect
       style="opacity:1;fill:#c46161;fill-opacity:1;fill-rule:evenodd;stroke:none;stroke-width:1;stroke-linecap:round;stroke-linejoin:round;stroke-miterlimit:4;stroke-dasharray:none;stroke-opacity:1"
       id="rect5102"
       width="17.991667"
       height="8.4666672"
       x="358.77502"
       y="221.85831" />
    <text
       xml:space="preserve"
       style="font-style:normal;font-variant:normal;font-weight:normal;font-stretch:normal;font-size:5.64444447px;line-height:7.25;font-family:'Swiss911 UCm BT';-inkscape-font-specification:'Swiss911 UCm BT';letter-spacing:0px;word-spacing:0px;fill:#000000;fill-opacity:1;stroke:none;stroke-width:0.26458335"
       x="371.46066"
       y="228.98256"
       id="text5100"><tspan
         sodipodi:role="line"
         id="tspan5098"
         x="371.46066"
         y="228.98256"
         style="font-style:normal;font-variant:normal;font-weight:normal;font-stretch:normal;font-size:5.64444447px;font-family:'Swiss911 UCm BT';-inkscape-font-specification:'Swiss911 UCm BT';stroke-width:0.26458335">36    2.12</tspan></text>
    <rect
       style="opacity:1;fill:#9bbde4;fill-opacity:1;fill-rule:evenodd;stroke:none;stroke-width:1;stroke-linecap:round;stroke-linejoin:round;stroke-miterlimit:4;stroke-dasharray:none;stroke-opacity:1"
       id="rect5262"
       width="17.991667"
       height="8.4666672"
       x="358.77502"
       y="231.38332" />
    <text
       xml:space="preserve"
       style="font-style:normal;font-variant:normal;font-weight:normal;font-stretch:normal;font-size:5.64444447px;line-height:7.25;font-family:'Swiss911 UCm BT';-inkscape-font-specification:'Swiss911 UCm BT';letter-spacing:0px;word-spacing:0px;display:inline;fill:#000000;fill-opacity:1;stroke:none;stroke-width:0.26458335"
       x="371.44305"
       y="238.44048"
       id="text5100-8"><tspan
         sodipodi:role="line"
         id="tspan5098-5"
         x="371.44305"
         y="238.44048"
         style="font-style:normal;font-variant:normal;font-weight:normal;font-stretch:normal;font-size:5.64444447px;font-family:'Swiss911 UCm BT';-inkscape-font-specification:'Swiss911 UCm BT';stroke-width:0.26458335">35    4.20</tspan></text>
    <text
       xml:space="preserve"
       style="font-style:normal;font-variant:normal;font-weight:normal;font-stretch:normal;font-size:5.64444447px;line-height:7.25;font-family:'Swiss911 UCm BT';-inkscape-font-specification:'Swiss911 UCm BT';letter-spacing:0px;word-spacing:0px;display:inline;fill:#000000;fill-opacity:1;stroke:none;stroke-width:0.26458335"
       x="371.74371"
       y="248.02878"
       id="text5100-0"><tspan
         sodipodi:role="line"
         id="tspan5098-1"
         x="371.74371"
         y="248.02878"
         style="font-style:normal;font-variant:normal;font-weight:normal;font-stretch:normal;font-size:5.64444447px;font-family:'Swiss911 UCm BT';-inkscape-font-specification:'Swiss911 UCm BT';stroke-width:0.26458335">34    5.62</tspan></text>
    <text
       xml:space="preserve"
       style="font-style:normal;font-variant:normal;font-weight:normal;font-stretch:normal;font-size:5.64444447px;line-height:7.25;font-family:'Swiss911 UCm BT';-inkscape-font-specification:'Swiss911 UCm BT';letter-spacing:0px;word-spacing:0px;display:inline;fill:#000000;fill-opacity:1;stroke:none;stroke-width:0.26458335"
       x="371.74371"
       y="257.28296"
       id="text5100-7"><tspan
         sodipodi:role="line"
         id="tspan5098-0"
         x="371.74371"
         y="257.28296"
         style="font-style:normal;font-variant:normal;font-weight:normal;font-stretch:normal;font-size:5.64444447px;font-family:'Swiss911 UCm BT';-inkscape-font-specification:'Swiss911 UCm BT';stroke-width:0.26458335">22    2.49</tspan></text>
    <text
       xml:space="preserve"
       style="font-style:normal;font-variant:normal;font-weight:normal;font-stretch:normal;font-size:5.64444447px;line-height:7.25;font-family:'Swiss911 UCm BT';-inkscape-font-specification:'Swiss911 UCm BT';letter-spacing:0px;word-spacing:0px;display:inline;fill:#000000;fill-opacity:1;stroke:none;stroke-width:0.26458335"
       x="371.91077"
       y="267.10513"
       id="text5100-6"><tspan
         sodipodi:role="line"
         id="tspan5098-7"
         x="371.91077"
         y="267.10513"
         style="font-style:normal;font-variant:normal;font-weight:normal;font-stretch:normal;font-size:5.64444447px;font-family:'Swiss911 UCm BT';-inkscape-font-specification:'Swiss911 UCm BT';stroke-width:0.26458335">28    6.22</tspan></text>
    <text
       xml:space="preserve"
       style="font-style:normal;font-variant:normal;font-weight:normal;font-stretch:normal;font-size:5.64444447px;line-height:7.25;font-family:'Swiss911 UCm BT';-inkscape-font-specification:'Swiss911 UCm BT';letter-spacing:0px;word-spacing:0px;display:inline;fill:#000000;fill-opacity:1;stroke:none;stroke-width:0.26458335"
       x="372.17804"
       y="276.25909"
       id="text5100-76"><tspan
         sodipodi:role="line"
         id="tspan5098-75"
         x="372.17804"
         y="276.25909"
         style="font-style:normal;font-variant:normal;font-weight:normal;font-stretch:normal;font-size:5.64444447px;font-family:'Swiss911 UCm BT';-inkscape-font-specification:'Swiss911 UCm BT';stroke-width:0.26458335">20    7.35</tspan></text>
    <text
       xml:space="preserve"
       style="font-style:normal;font-variant:normal;font-weight:normal;font-stretch:normal;font-size:5.64444447px;line-height:7.25;font-family:'Swiss911 UCm BT';-inkscape-font-specification:'Swiss911 UCm BT';letter-spacing:0px;word-spacing:0px;display:inline;fill:#000000;fill-opacity:1;stroke:none;stroke-width:0.26458335"
       x="371.94418"
       y="286.2149"
       id="text5100-5"><tspan
         sodipodi:role="line"
         id="tspan5098-3"
         x="371.94418"
         y="286.2149"
         style="font-style:normal;font-variant:normal;font-weight:normal;font-stretch:normal;font-size:5.64444447px;font-family:'Swiss911 UCm BT';-inkscape-font-specification:'Swiss911 UCm BT';stroke-width:0.26458335">25    8.33</tspan></text>
    <text
       xml:space="preserve"
       style="font-style:normal;font-variant:normal;font-weight:normal;font-stretch:normal;font-size:5.64444447px;line-height:7.25;font-family:'Swiss911 UCm BT';-inkscape-font-specification:'Swiss911 UCm BT';letter-spacing:0px;word-spacing:0px;display:inline;fill:#000000;fill-opacity:1;stroke:none;stroke-width:0.26458335"
       x="371.61008"
       y="295.46909"
       id="text5100-86"><tspan
         sodipodi:role="line"
         id="tspan5098-4"
         x="371.61008"
         y="295.46909"
         style="font-style:normal;font-variant:normal;font-weight:normal;font-stretch:normal;font-size:5.64444447px;font-family:'Swiss911 UCm BT';-inkscape-font-specification:'Swiss911 UCm BT';stroke-width:0.26458335">25    8.33</tspan></text>
    <text
       xml:space="preserve"
       style="font-style:normal;font-variant:normal;font-weight:normal;font-stretch:normal;font-size:5.64444447px;line-height:7.25;font-family:'Swiss911 UCm BT';-inkscape-font-specification:'Swiss911 UCm BT';letter-spacing:0px;word-spacing:0px;display:inline;fill:#000000;fill-opacity:1;stroke:none;stroke-width:0.26458335"
       x="371.67691"
       y="304.92377"
       id="text5100-2"><tspan
         sodipodi:role="line"
         id="tspan5098-9"
         x="371.67691"
         y="304.92377"
         style="font-style:normal;font-variant:normal;font-weight:normal;font-stretch:normal;font-size:5.64444447px;font-family:'Swiss911 UCm BT';-inkscape-font-specification:'Swiss911 UCm BT';stroke-width:0.26458335">25    8.33</tspan></text>
    <text
       xml:space="preserve"
       style="font-style:normal;font-variant:normal;font-weight:normal;font-stretch:normal;font-size:5.64444447px;line-height:7.25;font-family:'Swiss911 UCm BT';-inkscape-font-specification:'Swiss911 UCm BT';letter-spacing:0px;word-spacing:0px;display:inline;fill:#000000;fill-opacity:1;stroke:none;stroke-width:0.26458335"
       x="371.37622"
       y="314.41183"
       id="text5100-69"><tspan
         sodipodi:role="line"
         id="tspan5098-99"
         x="371.37622"
         y="314.41183"
         style="font-style:normal;font-variant:normal;font-weight:normal;font-stretch:normal;font-size:5.64444447px;font-family:'Swiss911 UCm BT';-inkscape-font-specification:'Swiss911 UCm BT';stroke-width:0.26458335">25    8.33</tspan></text>
    <rect
       style="display:inline;opacity:1;fill:#9bbde4;fill-opacity:1;fill-rule:evenodd;stroke:none;stroke-width:0.94733095;stroke-linecap:round;stroke-linejoin:round;stroke-miterlimit:4;stroke-dasharray:none;stroke-opacity:1"
       id="rect5186"
       width="37.041668"
       height="12.700006"
       x="322.79169"
       y="120.11016" />
    <text
       xml:space="preserve"
       style="font-style:normal;font-variant:normal;font-weight:normal;font-stretch:normal;font-size:7.05555534px;line-height:7.25;font-family:'Swiss911 UCm BT';-inkscape-font-specification:'Swiss911 UCm BT';letter-spacing:0px;word-spacing:0px;display:inline;fill:#000000;fill-opacity:1;stroke:none;stroke-width:0.26458335"
       x="350.18225"
       y="130.48337"
       id="text5190"><tspan
         sodipodi:role="line"
         id="tspan5188"
         x="350.18225"
         y="130.48337"
         style="font-style:normal;font-variant:normal;font-weight:normal;font-stretch:normal;font-family:'Swiss911 UCm BT';-inkscape-font-specification:'Swiss911 UCm BT';stroke-width:0.26458335">Next</tspan></text>
    <rect
       style="display:inline;opacity:1;fill:#9bbde4;fill-opacity:1;fill-rule:evenodd;stroke:none;stroke-width:0.94733095;stroke-linecap:round;stroke-linejoin:round;stroke-miterlimit:4;stroke-dasharray:none;stroke-opacity:1"
       id="rect5186-1"
       width="37.041668"
       height="12.700006"
       x="284.69168"
       y="120.11016" />
    <text
       xml:space="preserve"
       style="font-style:normal;font-variant:normal;font-weight:normal;font-stretch:normal;font-size:7.05555534px;line-height:7.25;font-family:'Swiss911 UCm BT';-inkscape-font-specification:'Swiss911 UCm BT';letter-spacing:0px;word-spacing:0px;display:inline;fill:#000000;fill-opacity:1;stroke:none;stroke-width:0.26458335"
       x="310.95364"
       y="130.6315"
       id="text5190-2"><tspan
         sodipodi:role="line"
         id="tspan5188-7"
         x="310.95364"
         y="130.6315"
         style="font-style:normal;font-variant:normal;font-weight:normal;font-stretch:normal;font-family:'Swiss911 UCm BT';-inkscape-font-specification:'Swiss911 UCm BT';stroke-width:0.26458335">Prev</tspan></text>
    <path
       style="display:inline;opacity:1;fill:#c46161;fill-opacity:1;fill-rule:evenodd;stroke:none;stroke-width:1.28880155;stroke-linecap:round;stroke-linejoin:round;stroke-miterlimit:4;stroke-dasharray:none;stroke-opacity:1"
       d="M 298.45002,221.85831 H 306.91668 V 230.32498 H 298.45002 C 295.79591,230.32498 294.21162,228.76345 294.21668,226.09165 294.22184,223.36971 295.78883,221.85831 298.45002,221.85831 Z"
       id="rect966-4"
       inkscape:connector-curvature="0"
       sodipodi:nodetypes="sccsss" />
    <path
       style="display:inline;opacity:1;fill:#9bbde4;fill-opacity:1;fill-rule:evenodd;stroke:none;stroke-width:1.28880155;stroke-linecap:round;stroke-linejoin:round;stroke-miterlimit:4;stroke-dasharray:none;stroke-opacity:1"
       d="M 298.45002,231.38331 H 306.91668 V 239.84998 H 298.45002 C 295.79591,239.84998 294.21162,238.28845 294.21668,235.61665 294.22184,232.89471 295.78883,231.38331 298.45002,231.38331 Z"
       id="rect966-4-22"
       inkscape:connector-curvature="0"
       sodipodi:nodetypes="sccsss" />
    <path
       style="display:inline;opacity:1;fill:#ff9966;fill-opacity:1;fill-rule:evenodd;stroke:none;stroke-width:1.28880155;stroke-linecap:round;stroke-linejoin:round;stroke-miterlimit:4;stroke-dasharray:none;stroke-opacity:1"
       d="M 298.45002,240.90831 H 306.91669 V 249.37498 H 298.45002 C 295.79592,249.37498 294.21162,247.81345 294.21668,245.14165 294.22184,242.41971 295.78883,240.90831 298.45002,240.90831 Z"
       id="rect966-4-22-3"
       inkscape:connector-curvature="0"
       sodipodi:nodetypes="sccsss" />
    <path
       style="display:inline;opacity:1;fill:#ff9966;fill-opacity:1;fill-rule:evenodd;stroke:none;stroke-width:1.28880155;stroke-linecap:round;stroke-linejoin:round;stroke-miterlimit:4;stroke-dasharray:none;stroke-opacity:1"
       d="M 298.45002,250.43331 H 306.91669 V 258.89999 H 298.45002 C 295.79592,258.89999 294.21162,257.33845 294.21668,254.66665 294.22184,251.94471 295.78883,250.43331 298.45002,250.43331 Z"
       id="rect966-4-22-3-6"
       inkscape:connector-curvature="0"
       sodipodi:nodetypes="sccsss" />
    <path
       style="display:inline;opacity:1;fill:#9bbde4;fill-opacity:1;fill-rule:evenodd;stroke:none;stroke-width:1.28880155;stroke-linecap:round;stroke-linejoin:round;stroke-miterlimit:4;stroke-dasharray:none;stroke-opacity:1"
       d="M 298.45002,259.95832 H 306.91669 V 268.42498 H 298.45002 C 295.79592,268.42498 294.21162,266.86345 294.21668,264.19165 294.22184,261.46971 295.78883,259.95832 298.45002,259.95832 Z"
       id="rect966-4-22-3-7"
       inkscape:connector-curvature="0"
       sodipodi:nodetypes="sccsss" />
    <path
       style="display:inline;opacity:1;fill:#9bbde4;fill-opacity:1;fill-rule:evenodd;stroke:none;stroke-width:1.28880155;stroke-linecap:round;stroke-linejoin:round;stroke-miterlimit:4;stroke-dasharray:none;stroke-opacity:1"
       d="M 298.45002,269.48332 H 306.91669 V 277.94999 H 298.45002 C 295.79592,277.94999 294.21162,276.38846 294.21668,273.71666 294.22184,270.99472 295.78883,269.48332 298.45002,269.48332 Z"
       id="rect966-4-22-3-5"
       inkscape:connector-curvature="0"
       sodipodi:nodetypes="sccsss" />
    <path
       style="display:inline;opacity:1;fill:#cc6666;fill-opacity:1;fill-rule:evenodd;stroke:none;stroke-width:1.28880155;stroke-linecap:round;stroke-linejoin:round;stroke-miterlimit:4;stroke-dasharray:none;stroke-opacity:1"
       d="M 298.45002,279.00832 H 306.91669 V 287.47499 H 298.45002 C 295.79592,287.47499 294.21162,285.91346 294.21668,283.24166 294.22184,280.51972 295.78883,279.00832 298.45002,279.00832 Z"
       id="rect966-4-22-3-3"
       inkscape:connector-curvature="0"
       sodipodi:nodetypes="sccsss" />
    <path
       style="display:inline;opacity:1;fill:#fafafa;fill-opacity:1;fill-rule:evenodd;stroke:none;stroke-width:1.28880155;stroke-linecap:round;stroke-linejoin:round;stroke-miterlimit:4;stroke-dasharray:none;stroke-opacity:1"
       d="M 298.45002,288.53332 H 306.91669 V 296.99999 H 298.45002 C 295.79592,296.99999 294.21162,295.43846 294.21668,292.76666 294.22184,290.04472 295.78883,288.53332 298.45002,288.53332 Z"
       id="rect966-4-22-3-56"
       inkscape:connector-curvature="0"
       sodipodi:nodetypes="sccsss" />
    <path
       style="display:inline;opacity:1;fill:#9bbde4;fill-opacity:1;fill-rule:evenodd;stroke:none;stroke-width:1.28880155;stroke-linecap:round;stroke-linejoin:round;stroke-miterlimit:4;stroke-dasharray:none;stroke-opacity:1"
       d="M 298.45002,298.05832 H 306.91669 V 306.52499 H 298.45002 C 295.79592,306.52499 294.21162,304.96346 294.21668,302.29166 294.22184,299.56972 295.78883,298.05832 298.45002,298.05832 Z"
       id="rect966-4-22-3-2"
       inkscape:connector-curvature="0"
       sodipodi:nodetypes="sccsss" />
    <path
       style="display:inline;opacity:1;fill:#9bbde4;fill-opacity:1;fill-rule:evenodd;stroke:none;stroke-width:1.28880155;stroke-linecap:round;stroke-linejoin:round;stroke-miterlimit:4;stroke-dasharray:none;stroke-opacity:1"
       d="M 298.45002,307.58332 H 306.91669 V 316.04999 H 298.45002 C 295.79592,316.04999 294.21162,314.48846 294.21668,311.81666 294.22184,309.09472 295.78883,307.58332 298.45002,307.58332 Z"
       id="rect966-4-22-3-9"
       inkscape:connector-curvature="0"
       sodipodi:nodetypes="sccsss" />
    <rect
       style="display:inline;opacity:1;fill:#cc6666;fill-opacity:1;fill-rule:evenodd;stroke:none;stroke-width:0.94733095;stroke-linecap:round;stroke-linejoin:round;stroke-miterlimit:4;stroke-dasharray:none;stroke-opacity:1"
       id="rect5186-1-2"
       width="37.041668"
       height="12.700006"
       x="6.3500013"
       y="99.091614" />
    <text
       xml:space="preserve"
       style="font-style:normal;font-variant:normal;font-weight:normal;font-stretch:normal;font-size:7.05555534px;line-height:7.25;font-family:'Swiss911 UCm BT';-inkscape-font-specification:'Swiss911 UCm BT';letter-spacing:0px;word-spacing:0px;display:inline;fill:#000000;fill-opacity:1;stroke:none;stroke-width:0.26458335"
       x="32.611965"
       y="109.61296"
       id="text5190-2-6"><tspan
         sodipodi:role="line"
         id="tspan5188-7-1"
         x="32.611965"
         y="109.61296"
         style="font-style:normal;font-variant:normal;font-weight:normal;font-stretch:normal;font-family:'Swiss911 UCm BT';-inkscape-font-specification:'Swiss911 UCm BT';stroke-width:0.26458335">Back</tspan></text>
  </g>
</svg>
